<?xml version="1.0" standalone="no"?>
<!DOCTYPE svg PUBLIC "-//W3C//DTD SVG 1.1//EN" "http://www.w3.org/Graphics/SVG/1.1/DTD/svg11.dtd" >
<svg xmlns="http://www.w3.org/2000/svg">
<defs>
  <font id="myfont" horiz-adv-x="1164.8">
    <font-face font-family="myfont"
      units-per-em="1001" ascent="1001"
      descent="0" />
    <missing-glyph horiz-adv-x="0" />
    <glyph glyph-name="dribbble"
      unicode="&#xE001;"
      horiz-adv-x="1001" d="M500.5 1001C224.0571666666667 1001 0 776.901125 0 500.5S224.0571666666667 0 500.5 0S1001 224.098875 1001 500.5S776.9428333333334 1001 500.5 1001zM912.786875 523.8149583333333C805.3879166666667 541.4158749999999 706.6225833333334 542.3751666666667 616.5325833333333 526.8596666666666C606.35575 550.3414583333333 595.8035416666667 573.7815416666666 584.5422916666666 596.9296666666667C680.8885416666667 638.6379999999999 758.2575 695.2779166666667 815.940125 767.1830833333333C872.2463750000001 700.6999999999999 907.5733333333332 616.2406249999999 912.786875 523.8149583333333zM752.5434583333333 827.5350416666666C702.2849166666667 762.7202916666666 632.9239583333333 711.46075 544.5857083333333 674.048375C502.2100416666667 751.6675833333333 453.7449583333333 827.3682083333333 399.1070416666667 900.8582916666666C431.5978333333333 909.0748333333333 465.465 913.9547083333334 500.5 913.9547083333334C595.3864583333334 913.9547083333334 682.6820000000001 881.4639166666666 752.5434583333333 827.5350416666666zM313.938625 868.9514166666667C369.4524166666667 796.2955 418.6682500000001 721.3873333333333 461.461 644.518875C360.10975 614.6974166666666 239.113875 599.3904583333333 99.2658333333334 598.4311666666666C128.1280000000001 716.6742916666666 207.7492083333334 815.0225416666666 313.9386250000001 868.9514166666665zM87.0452916666666 500.5L87.5875 511.1773333333333C248.122875 511.385875 386.5945416666666 529.8626666666667 502.5854166666666 566.31575C512.3034583333333 546.5042916666666 521.6044166666666 526.6094166666667 530.5299999999999 506.5894166666666C389.5558333333333 462.5037083333333 273.3981249999999 372.2051666666667 182.8076249999999 236.3194166666665C123.0812916666666 308.0160416666665 87.0452916666666 400.1080416666665 87.0452916666666 500.4999999999998zM246.7465 174.7579166666667C328.8702083333333 303.5532500000001 433.68325 387.387 563.6464166666667 426.1340416666667C602.35175 325.1998750000002 630.755125 221.346125 648.8565416666667 114.989875C509.1753333333333 61.1444166666666 358.8585 87.212125 246.7465 174.7579166666667zM729.97925 156.8233333333334C711.711 254.9630416666668 684.9342499999999 350.8922083333333 649.8992499999999 444.4857083333334C728.1440833333334 455.5384166666668 814.2300833333334 452.6605416666667 908.4492083333334 436.310875C890.2226666666667 320.1114583333333 823.8647083333334 219.7612083333334 729.97925 156.8233333333334z" />
    <glyph glyph-name="facebook"
      unicode="&#xE002;"
      horiz-adv-x="1001" d="M375.375 667.3333333333333H250.25V500.5H375.375V0H583.9166666666667V500.5H735.8184166666667L750.75 667.3333333333333H583.9166666666667V736.8611249999999C583.9166666666667 776.6925833333333 591.9246666666667 792.4583333333333 630.4214583333334 792.4583333333333H750.75V1001H591.9246666666667C441.9415 1001 375.375 934.9757083333334 375.375 808.5160416666666V667.3333333333333z" />
    <glyph glyph-name="google"
      unicode="&#xE003;"
      horiz-adv-x="1001" d="M99.54945 721.27055C99.54945 646.49585 124.5244 592.5419499999999 173.72355 560.8603C214.06385 534.8343 260.81055 530.9304 285.13485 530.9304C291.04075 530.9304 295.7955 531.2307 299.0988 531.4309C299.0988 531.4309 291.3911 481.1807 328.6283 431.5310999999999H326.9266C262.41215 431.5310999999999 52.00195 418.06765 52.00195 244.99475C52.00195 69.0189499999999 245.245 60.0600000000001 284.03375 60.0600000000001C287.0868 60.0600000000001 288.8886 60.1600999999999 288.8886 60.1600999999999C289.289 60.1600999999999 292.04175 60.0600000000001 296.7965000000001 60.0600000000001C321.67135 60.0600000000001 385.9856000000001 63.1631000000001 445.6952500000001 92.24215C523.17265 129.7796500000001 562.4619 195.2951000000001 562.4619 286.6864000000001C562.4619 374.9746 502.6021000000001 427.5271 458.90845 465.9655C432.2318 489.4389499999999 409.15875 509.65915 409.15875 529.3288C409.15875 549.3488 426.0256 564.4138499999999 447.29685 583.4829C481.7813 614.26365 514.3138 658.1575 514.3138 741.1404C514.3138 814.0632499999999 504.8543500000001 863.0622 446.5461 894.14325C452.6021500000001 897.24635 474.12365 899.4986 484.73425 901.0001C516.3158 905.3044 562.51195 910.2093 562.51195 935.98505V940.94H332.332C330.0297 940.8399 99.54945 932.3314 99.54945 721.27055zM471.12065 270.1699C475.52505 199.7996000000001 415.3149 147.89775 324.87455 141.3412C233.0328 134.5844499999998 157.4573 175.9257499999999 153.0529 246.246C150.90075 280.0798 165.7656 313.1128 194.84465 339.4891499999999C224.3241 366.1657999999999 264.81455 382.6823 308.8585499999999 385.9355499999999C314.06375 386.2358500000001 319.2189 386.53615 324.37405 386.53615C409.409 386.4861 466.9664999999999 336.5362 471.1206499999999 270.1699zM411.0106 769.4687C433.58315 689.9893 399.4991 607.0064 345.1448 591.64105C338.88855 589.8893 332.48215 589.03845 325.9256 589.03845C276.1759 589.03845 226.87665 639.3887500000001 208.55835 708.8081C198.34815 747.6469 199.199 781.781 210.9107 814.5137C222.37215 846.79595 243.09285 868.4676000000001 269.11885 875.8249500000001C275.3751 877.5767000000001 281.83155 878.4776 288.3881 878.4776C348.4481 878.4776 387.0867 853.5527 411.0106 769.4687zM800.8 600.6V750.75H700.6999999999999V600.6H550.55V500.5H700.6999999999999V350.35H800.8V500.5H950.95V600.6H800.8z" />
    <glyph glyph-name="linkedin"
      unicode="&#xE004;"
      horiz-adv-x="1001" d="M375.375 625.625H548.503033203125V536.882048828125H550.978162109375C575.064724609375 580.08341015625 634.02792578125 625.625 721.893046875 625.625C904.640064453125 625.625 938.4375 511.8629140625 938.4375 363.9045566406251V62.5625H757.974013671875V329.7024199218751C757.974013671875 393.422326171875 756.6699765625 475.3811562500001 664.102892578125 475.3811562500001C570.1144667968749 475.3811562500001 555.7720136718749 405.9895683593751 555.7720136718749 334.3300898437501V62.5625H375.3749999999999V625.625zM62.5625 625.625H250.25V62.5625H62.5625V625.625zM250.25 782.03125C250.25 730.20212890625 208.23537109375 688.1875 156.40625 688.1875S62.5625 730.20212890625 62.5625 782.03125C62.5625 833.86037109375 104.57712890625 875.875 156.40625 875.875S250.25 833.86037109375 250.25 782.03125z" />
    <glyph glyph-name="location"
      unicode="&#xE005;"
      horiz-adv-x="1001" d="M500.5 1001C327.7375664062501 1001 187.6875 860.94993359375 187.6875 688.1875C187.6875 375.375 500.5 0 500.5 0S813.3125 375.375 813.3125 688.1875C813.3125 860.94993359375 673.260478515625 1001 500.5 1001zM500.5 500.5C396.8417578125 500.5 312.8125 584.5292578125 312.8125 688.1875S396.8417578125 875.875 500.5 875.875S688.1875 791.8457421875 688.1875 688.1875S604.1582421874999 500.5 500.5 500.5z" />
    <glyph glyph-name="logo"
      unicode="&#xE006;"
      horiz-adv-x="1164.8" d="M-18.2 1019.2H1183V-18.1999999999999H-18.2V1019.2zM0 970.0600144550205C3.6400000542402 931.840013885498 580.5800086513161 9.1000001356006 600.6000089496374 9.1000001356006C622.4400092750788 9.1000001356006 1164.8000173568726 913.6400136142968 1164.8000173568726 950.0400141566992C1164.8000173568726 975.5200145363808 1062.8800158381462 966.4200144007802 819.000012204051 919.1000136956573L582.4000086784363 871.7800129905343L342.1600050985813 928.2000138312578C103.7400015458465 982.8000146448612 0 995.540014834702 0 970.0600144550205zM338.5200050443411 882.700013153255C462.2800068885088 848.1200126379729 576.9400085970759 819.000012204051 593.3200088411569 819.000012204051C611.520009112358 819.000012204051 729.8200108751654 848.1200126379729 859.0400128006935 884.5200131803751C990.0800147533416 919.1000136956573 1099.2800163805484 944.5800140753388 1104.7400164619087 940.9400140210986C1117.4800166517496 926.3800138041375 611.520009112358 54.6000008136034 593.3200088411569 60.0600008949638C586.0400087326765 61.8800009220839 484.1200072139501 229.3200034171344 369.460005505383 427.7000063732267C254.8000037968159 627.9000093564391 140.1400020882487 826.2800123125314 116.4800017356873 869.9600129634142C91.0000013560057 911.8200135871768 80.080001193285 946.400014102459 91.0000013560057 946.400014102459C101.9200015187264 946.400014102459 212.9400031730533 917.280013668537 338.5200050443411 882.700013153255zM172.9000025764108 824.4600122854114C360.3600053697824 487.7600072681904 593.3200088411569 96.460001437366 600.6000089496374 103.7400015458466C618.8000092208385 120.1200017899275 1068.3400159195064 900.9000134244562 1064.7000158652663 906.3600135058164C1061.060015811026 910.0000135600566 955.5000142380596 882.700013153255 828.1000123396516 848.1200126379729L595.140008868277 782.6000116616488L371.2800055325032 846.3000126108527C247.5200036883354 880.8800131261348 140.1400020882487 910.0000135600566 134.6800020068884 910.0000135600566C129.2200019255281 910.0000135600566 145.6000021696091 871.7800129905343 172.9000025764108 824.4600122854114zM899.940132 805.513436M904.931482 2785.099408" />
    <glyph glyph-name="mail"
      unicode="&#xE007;"
      horiz-adv-x="1001" d="M78.7787 736.4357C103.2031 723.3226 441.5411000000001 541.541 454.1537 534.78425S483.0826 524.8243 499.499 524.8243C515.9154 524.8243 532.2316999999999 528.0275000000001 544.8443 534.78425S895.7949 723.3226 920.2193 736.4357C944.6937500000003 749.5988500000001 967.8168500000002 800.8000000000001 922.922 800.8000000000001H76.12605C31.2312 800.8000000000001 54.3543 749.5988500000001 78.7787 736.4357zM931.5806499999998 626.17555C903.8029 611.7111 561.8612999999999 433.5331 544.8443 424.6242000000001S515.9154 414.6642500000001 499.4989999999999 414.6642500000001S471.1706999999999 415.7153000000001 454.1536999999999 424.6242000000001S97.1470499999999 611.76115 69.3692999999999 626.2256C49.8497999999999 636.4358 50.0499999999999 624.47385 50.0499999999999 615.26465S50.0499999999999 250.25 50.0499999999999 250.25C50.0499999999999 229.2290000000001 78.3782999999999 200.2000000000001 100.0999999999999 200.2000000000001H900.9C922.6217 200.2000000000001 950.95 229.2290000000001 950.95 250.25C950.95 250.25 950.95 606.0054 950.95 615.2146S951.1502 636.38575 931.5806499999998 626.17555z" />
    <glyph glyph-name="phone"
      unicode="&#xE008;"
      horiz-adv-x="1001" d="M562.01145 438.9885500000001C482.7822999999999 359.8094500000001 390.9906 284.0337500000001 354.7043499999999 320.3200000000001C302.8025 372.2218500000002 270.7704999999999 417.4670500000001 156.2561 325.4251000000001C41.79175 233.4332000000002 129.7295999999999 172.0719000000002 180.02985 121.8217000000001C238.0878499999999 63.7637000000001 454.5040499999999 118.7186000000001 668.4177499999998 332.5822500000002C882.2814 546.49595 937.0861499999997 762.9121500000001 878.9780999999998 820.9701500000001C828.6778499999999 871.32045 767.6168499999999 959.20825 675.6249499999999 844.7439C583.5829999999999 730.2795500000001 628.7781499999999 698.24755 680.7800999999998 646.29565C716.9161999999999 610.0094 641.1905499999999 518.2176999999999 562.01145 438.9885500000001z" />
    <glyph glyph-name="pinterest"
      unicode="&#xE009;"
      horiz-adv-x="1001" d="M431.2808500000001 338.98865C404.9545500000001 201.1509500000001 372.8725000000001 69.0189499999999 277.7274500000001 0C248.3981500000001 208.3081 320.8205000000001 364.71435 354.5041500000001 530.78025C297.0968000000001 627.37675 361.4110500000001 821.6708500000001 482.3819 773.773C631.28065 714.9142 353.4531000000001 414.8144000000001 539.9394000000001 377.2769000000001C734.6839500000001 338.1878500000001 814.1633500000002 715.1144 693.3927000000001 837.68685C518.9684500000002 1014.76375 185.5854000000001 841.841 226.6264000000001 588.3377499999999C236.5863500000001 526.37585 300.6003000000001 507.6071 252.2019500000001 422.07165C140.5404000000001 446.79635 107.2071000000001 534.88435 111.5114000000001 652.30165C118.4183000000001 844.49365 284.1338500000001 978.978 450.3999500000001 997.64665C660.6600000000001 1021.2202 858.00715 920.4195 885.2844000000001 722.67195C915.96505 499.3989 790.3896000000001 257.5573000000001 565.5149500000001 274.9747C504.5540500000001 279.7294500000001 479.0285500000001 309.95965 431.2808500000001 338.98865z" />
    <glyph glyph-name="twitter"
      unicode="&#xE00A;"
      horiz-adv-x="1001" d="M1001 810.935125C964.1715416666668 794.5854583333332 924.5903333333334 783.5744583333333 883.0488333333334 778.6111666666666C925.4662083333334 804.0115416666666 958.0404166666668 844.2600833333333 973.347375 892.2246666666666C933.68275 868.7011666666666 889.7221666666668 851.60075 842.9254166666667 842.3832083333333C805.5130416666668 882.2980833333332 752.0846666666667 907.2396666666666 693.0256666666667 907.2396666666666C560.434875 907.2396666666666 463.0042083333333 783.53275 492.9507916666666 655.1127916666667C322.322 663.663 171.0041666666666 745.4113333333332 69.694625 869.6604583333333C15.890875 777.3599166666665 41.79175 656.6142916666665 133.2164166666667 595.469875C99.5995 596.5542916666666 67.9011666666666 605.7718333333332 40.2485416666666 621.1622083333332C37.9962916666666 526.0255 106.1894166666666 437.0199166666665 204.95475 417.2084583333333C176.050875 409.3672916666666 144.39425 407.532125 112.1954166666666 413.7049583333334C138.3048333333333 332.1234583333334 214.1305833333333 272.7724999999999 304.0537499999999 271.1041666666667C217.7175 203.4115416666666 108.9421666666666 173.173 -1e-13 186.0191666666667C90.8824583333333 127.7526250000001 198.8653333333333 93.7603333333333 314.8145 93.7603333333333C696.1120833333333 93.7603333333333 911.5356249999998 415.7903750000001 898.5226250000001 704.6205833333333C938.6460416666666 733.6078750000001 973.4725 769.7690000000001 1001 810.9351250000001z" />
  </font>
</defs>
</svg>
