<?xml version="1.0" encoding="iso-8859-1"?>
<!-- Generator: Adobe Illustrator 16.0.0, SVG Export Plug-In . SVG Version: 6.00 Build 0)  -->
<!DOCTYPE svg PUBLIC "-//W3C//DTD SVG 1.1//EN" "http://www.w3.org/Graphics/SVG/1.1/DTD/svg11.dtd">
<svg version="1.1" id="Capa_1" xmlns="http://www.w3.org/2000/svg" xmlns:xlink="http://www.w3.org/1999/xlink" x="0px" y="0px"
	 width="98.906px" height="98.906px" viewBox="0 0 98.906 98.906" style="enable-background:new 0 0 98.906 98.906;"
	 xml:space="preserve">
<g>
	<g>
		<path d="M44.625,5.585h0.796c0.555,0,1-0.448,1-1c0-0.552-0.445-1-1-1h-0.796c-0.553,0-1,0.448-1,1
			C43.625,5.138,44.072,5.585,44.625,5.585z"/>
		<path d="M47.438,5.585h6.248c0.555,0,1-0.448,1-1c0-0.552-0.445-1-1-1h-6.248c-0.553,0-1,0.448-1,1
			C46.438,5.138,46.888,5.585,47.438,5.585z"/>
		<path d="M49.454,56.303c-1.9,0-3.449,1.547-3.449,3.449s1.549,3.449,3.449,3.449c1.902,0,3.449-1.547,3.449-3.451
			C52.902,57.848,51.355,56.303,49.454,56.303z M49.454,61.201c-0.799,0-1.449-0.65-1.449-1.451c0-0.799,0.65-1.449,1.449-1.449
			c0.798,0,1.449,0.65,1.449,1.449C50.902,60.551,50.252,61.201,49.454,61.201z"/>
		<path d="M70.697,10.914c-0.492-0.253-1.094-0.057-1.348,0.433c-0.018,0.031-0.018,0.065-0.025,0.097V1c0-0.552-0.447-1-1-1H30.387
			c-0.555,0-1,0.448-1,1v10.149c-0.299-0.326-0.772-0.442-1.187-0.229C12.596,18.943,2.898,34.818,2.898,52.352
			c0,25.67,20.885,46.555,46.555,46.555c20.083,0,37.236-12.785,43.751-30.643c0.209-0.184,0.293-0.434,0.271-0.807
			c1.633-4.736,2.531-9.816,2.531-15.105C96.009,34.812,86.309,18.935,70.697,10.914z M69.783,12.695
			c14.941,7.676,24.226,22.871,24.226,39.656c0,4.019-0.543,7.91-1.546,11.617c-0.534-1.089-1.303-1.824-2.301-2.188
			c-1.432-0.522-2.965-0.111-3.985,0.315c-0.394-0.963-1.021-1.716-1.886-2.246c-1.844-1.136-4.244-0.873-5.448-0.64
			c-0.91-1.295-2.087-2.104-3.5-2.405c-2.25-0.483-4.513,0.478-5.75,1.155l-0.302-0.543c0.011-0.053,0.033-0.103,0.033-0.155v-4.019
			c2.215-0.463,3.883-2.431,3.883-4.779c0-1.423-0.621-2.694-1.596-3.587c0.975-0.893,1.596-2.164,1.596-3.587
			c0-1.663-0.838-3.13-2.11-4.013c1.272-0.882,2.11-2.349,2.11-4.012c0-1.423-0.621-2.694-1.596-3.587
			c0.975-0.893,1.596-2.164,1.596-3.587c0-2.35-1.668-4.316-3.883-4.779v-9.141C69.41,12.39,69.561,12.579,69.783,12.695z
			 M69.707,28.609c-0.129-0.038-0.252-0.091-0.383-0.119v-5.089c1.096,0.409,1.883,1.457,1.883,2.694
			C71.207,27.181,70.597,28.117,69.707,28.609z M71.207,33.268c0,1.237-0.787,2.286-1.883,2.694v-5.089
			c0.133-0.028,0.254-0.081,0.383-0.119C70.597,31.245,71.207,32.182,71.207,33.268z M69.707,43.807
			c-0.129-0.038-0.25-0.091-0.383-0.119v-5.09c1.096,0.409,1.883,1.457,1.883,2.695C71.207,42.38,70.597,43.316,69.707,43.807z
			 M71.207,48.468c0,1.237-0.787,2.286-1.883,2.694v-5.089c0.133-0.028,0.254-0.081,0.383-0.119
			C70.597,46.445,71.207,47.381,71.207,48.468z M31.387,2h35.938v51.852l-2.283-4.138V7.473c0-0.552-0.446-1-1-1H34.866
			c-0.553,0-1,0.448-1,1v46.9c0,0.553,0.447,1,1,1h18.52l3.743,8.357H31.387V2z M51.902,35.119c1.428,0,2.588,1.161,2.588,2.587
			c0,1.427-1.16,2.587-2.588,2.587s-2.587-1.161-2.587-2.587C49.315,36.28,50.475,35.119,51.902,35.119z M57.244,35.582
			c-0.008-0.014-0.021-0.021-0.028-0.035c-0.009-0.013-0.009-0.028-0.017-0.04c-0.875-1.303-2.207-2.188-3.748-2.491
			c-1.541-0.304-3.106,0.012-4.411,0.888c-2.656,1.785-3.387,5.375-1.665,8.056l5.115,11.413H35.866v-44.9h27.175V46.09
			L57.244,35.582z M29.114,12.7c0.107-0.055,0.193-0.133,0.271-0.216v10.869c-1.359-0.517-3.524-0.927-6.349-0.112
			c-0.351,0.102-0.618,0.385-0.696,0.741c-0.008,0.028-0.656,2.89-1.848,6.64c-1.541,4.857-4.058,11.444-7.299,15.236
			c-6.027,7.047-4.612,23.436-4.52,24.413c-2.419-5.488-3.774-11.547-3.774-17.92C4.898,35.571,14.18,20.376,29.114,12.7z
			 M26.262,24.79c-0.094,1.52-0.506,3.92-1.808,4.916c-0.467,0.358-1.04,0.494-1.719,0.443c0.717-2.353,1.194-4.224,1.416-5.132
			C24.934,24.836,25.63,24.784,26.262,24.79z M8.953,70.885c0.186,0.195,0.437,0.322,0.718,0.322c0.031,0,0.063-0.002,0.097-0.004
			c0.551-0.053,0.954-0.541,0.899-1.09c-0.015-0.164-1.486-16.48,4.047-22.956c3.265-3.817,5.786-10.125,7.402-15.054
			c0.309,0.049,0.605,0.074,0.896,0.074c1.002,0,1.893-0.294,2.657-0.882c1.947-1.49,2.448-4.517,2.574-6.226
			c0.509,0.152,0.885,0.331,1.143,0.474V38.03c-2.224,8.831-0.488,13.67,0,14.776V64.73c0,0.008,0.004,0.014,0.004,0.021
			s-0.004,0.015-0.003,0.021c0.002,0.063,0.211,6.435-3.605,8.216c-0.501,0.233-0.717,0.83-0.482,1.33
			c0.171,0.362,0.529,0.575,0.906,0.575c0.144,0,0.285-0.028,0.422-0.094c3.973-1.854,4.645-6.88,4.745-9.065h19.34
			c-4.823,6.079-17.335,22.182-18.877,27.532C21.724,88.895,13.544,80.879,8.953,70.885z M33.69,94.016
			c0.337-3.209,11.974-18.777,19.579-28.285h4.6c0.051,0,0.097-0.021,0.146-0.027l0.938,2.1L55,71.247
			c-0.045,0.039-0.086,0.082-0.123,0.129c-0.108,0.138-2.647,3.414-0.147,9.66c1.871,4.676,5.47,11.547,6.867,14.176
			c-3.864,1.095-7.933,1.694-12.143,1.694C43.905,96.906,38.597,95.877,33.69,94.016z M63.543,94.609
			c-1.211-2.266-5.055-9.564-6.957-14.318c-1.895-4.73-0.454-7.213-0.188-7.611l3.41-2.973l2.326,5.189
			c0.166,0.373,0.527,0.592,0.91,0.592c0.139,0,0.275-0.027,0.408-0.088c0.504-0.225,0.729-0.816,0.502-1.32l-9.002-20.094v-0.002
			l-5.583-12.458c0.728,0.483,1.597,0.768,2.532,0.768c2.342,0,4.256-1.769,4.531-4.037l6.605,11.976v0.26
			c0,0.433,0.272,0.789,0.656,0.933l0.901,1.635c-0.308-0.209-0.713-0.246-1.058-0.049l-4.182,2.392
			c-0.479,0.272-0.646,0.885-0.371,1.362c0.187,0.321,0.521,0.504,0.867,0.504c0.168,0,0.34-0.043,0.494-0.133l4.184-2.392
			c0.336-0.19,0.506-0.549,0.49-0.91l1.462,2.648c-0.237-0.039-0.491,0-0.709,0.145l-4.382,2.89
			c-0.461,0.306-0.588,0.925-0.283,1.386c0.191,0.293,0.512,0.448,0.836,0.448c0.188,0,0.381-0.054,0.551-0.164l4.381-2.89
			c0.175-0.112,0.281-0.278,0.355-0.456l2.594,4.698c0.185,0.332,0.521,0.519,0.877,0.519c0.162,0,0.328-0.039,0.48-0.125
			c0.48-0.269,0.658-0.875,0.395-1.356l-1.022-1.854c0.978-0.535,2.744-1.306,4.36-0.957c1.07,0.229,1.92,0.914,2.595,2.086
			c0.229,0.401,0.713,0.591,1.151,0.461c0.027-0.01,2.84-0.827,4.58,0.248c0.707,0.438,1.142,1.144,1.316,2.151
			c0.059,0.33,0.275,0.609,0.586,0.742c0.307,0.138,0.66,0.104,0.943-0.076c0.535-0.348,2.193-1.151,3.385-0.715
			c0.48,0.181,0.877,0.57,1.18,1.168c-0.146,0.25-0.182,0.563-0.066,0.854c0.3,0.791,0.531,1.396,0.75,1.854
			C86.709,80.27,76.427,90.303,63.543,94.609z"/>
	</g>
</g>
<g>
</g>
<g>
</g>
<g>
</g>
<g>
</g>
<g>
</g>
<g>
</g>
<g>
</g>
<g>
</g>
<g>
</g>
<g>
</g>
<g>
</g>
<g>
</g>
<g>
</g>
<g>
</g>
<g>
</g>
</svg>
