<?xml version="1.0" standalone="no"?>
<!DOCTYPE svg PUBLIC "-//W3C//DTD SVG 1.1//EN" "http://www.w3.org/Graphics/SVG/1.1/DTD/svg11.dtd" >
<svg xmlns="http://www.w3.org/2000/svg">
<defs>
  <font id="myfont" horiz-adv-x="1164.8">
    <font-face font-family="myfont"
      units-per-em="1001" ascent="1001"
      descent="0" />
    <missing-glyph horiz-adv-x="0" />
    <glyph glyph-name="arrow_left"
      unicode="&#xE001;"
      horiz-adv-x="1001" d="M479.9285764097442 500.1768650555304L792.3674164456472 812.6292159601917C808.2426872366607 828.4887240709871 816.1623081404897 847.8858279849999 816.1623081404897 870.8182758907702C816.1623081404897 893.7484719850809 808.240435425201 913.1365686532548 792.3674164456472 928.9938249525904L744.1583849045398 977.2186191739158C728.3078840395833 993.0713718503322 708.9085283141109 1001 685.9850876541793 1001S643.6712985146143 993.0713718503322 627.7960277236008 977.2186191739158L208.6280799314334 558.6879340248486C192.7663200091782 542.8284259140532 184.8354400480507 523.4335738115001 184.8354400480507 500.4988740942701S192.7640681977185 458.185084954705 208.6280799314334 442.3188214095304L627.7937759121411 23.7881362604633C643.6690467031545 7.9286281496678 663.0571433713284 0 685.9828358427196 0S728.3056322281235 7.9286281496678 744.15613309308 23.7881362604633L792.3651646341874 72.0039232359497C808.2404354252009 87.8544241009063 816.1600563290299 107.1411892533928 816.1600563290299 129.8687223163289C816.1600563290299 152.5782408875871 808.2381836137413 172.0811799402066 792.3651646341874 188.3662804168888L479.9285764097442 500.1768650555304z" />
    <glyph glyph-name="arrow_right"
      unicode="&#xE002;"
      horiz-adv-x="1001" d="M320.985593220339 0C290.2725988700565 0 259.5378531073446 11.3324858757062 235.5242937853107 34.1279661016949C185.8875706214689 81.3285310734465 183.9081920903954 159.8511299435029 231.0870056497175 209.5096045197742L508.5915254237287 501.3700564971752L231.3697740112995 791.207627118644C184.0169491525424 840.6920903954802 185.7570621468926 919.2146892655368 235.2632768361582 966.5892655367232C284.7912429378531 1013.9638418079096 363.2920903954802 1012.20197740113 410.6449152542373 962.6957627118644L769.6519774011299 587.4186440677967C815.4169491525423 539.5655367231639 815.5039548022597 464.1968926553673 769.9347457627118 416.1915254237289L410.9494350282486 38.5652542372882C386.5225988700565 12.9638418079097 353.8302259887006 0 320.985593220339 0z" />
    <glyph glyph-name="dribbble"
      unicode="&#xE003;"
      horiz-adv-x="1001" d="M500.5 1001C224.0571666666667 1001 0 776.901125 0 500.5S224.0571666666667 0 500.5 0S1001 224.098875 1001 500.5S776.9428333333334 1001 500.5 1001zM912.786875 523.8149583333333C805.3879166666667 541.4158749999999 706.6225833333334 542.3751666666667 616.5325833333333 526.8596666666666C606.35575 550.3414583333333 595.8035416666667 573.7815416666666 584.5422916666666 596.9296666666667C680.8885416666667 638.6379999999999 758.2575 695.2779166666667 815.940125 767.1830833333333C872.2463750000001 700.6999999999999 907.5733333333332 616.2406249999999 912.786875 523.8149583333333zM752.5434583333333 827.5350416666666C702.2849166666667 762.7202916666666 632.9239583333333 711.46075 544.5857083333333 674.048375C502.2100416666667 751.6675833333333 453.7449583333333 827.3682083333333 399.1070416666667 900.8582916666666C431.5978333333333 909.0748333333333 465.465 913.9547083333334 500.5 913.9547083333334C595.3864583333334 913.9547083333334 682.6820000000001 881.4639166666666 752.5434583333333 827.5350416666666zM313.938625 868.9514166666667C369.4524166666667 796.2955 418.6682500000001 721.3873333333333 461.461 644.518875C360.10975 614.6974166666666 239.113875 599.3904583333333 99.2658333333334 598.4311666666666C128.1280000000001 716.6742916666666 207.7492083333334 815.0225416666666 313.9386250000001 868.9514166666665zM87.0452916666666 500.5L87.5875 511.1773333333333C248.122875 511.385875 386.5945416666666 529.8626666666667 502.5854166666666 566.31575C512.3034583333333 546.5042916666666 521.6044166666666 526.6094166666667 530.5299999999999 506.5894166666666C389.5558333333333 462.5037083333333 273.3981249999999 372.2051666666667 182.8076249999999 236.3194166666665C123.0812916666666 308.0160416666665 87.0452916666666 400.1080416666665 87.0452916666666 500.4999999999998zM246.7465 174.7579166666667C328.8702083333333 303.5532500000001 433.68325 387.387 563.6464166666667 426.1340416666667C602.35175 325.1998750000002 630.755125 221.346125 648.8565416666667 114.989875C509.1753333333333 61.1444166666666 358.8585 87.212125 246.7465 174.7579166666667zM729.97925 156.8233333333334C711.711 254.9630416666668 684.9342499999999 350.8922083333333 649.8992499999999 444.4857083333334C728.1440833333334 455.5384166666668 814.2300833333334 452.6605416666667 908.4492083333334 436.310875C890.2226666666667 320.1114583333333 823.8647083333334 219.7612083333334 729.97925 156.8233333333334z" />
    <glyph glyph-name="facebook"
      unicode="&#xE004;"
      horiz-adv-x="1001" d="M375.375 667.3333333333333H250.25V500.5H375.375V0H583.9166666666667V500.5H735.8184166666667L750.75 667.3333333333333H583.9166666666667V736.8611249999999C583.9166666666667 776.6925833333333 591.9246666666667 792.4583333333333 630.4214583333334 792.4583333333333H750.75V1001H591.9246666666667C441.9415 1001 375.375 934.9757083333334 375.375 808.5160416666666V667.3333333333333z" />
    <glyph glyph-name="google"
      unicode="&#xE005;"
      horiz-adv-x="1001" d="M99.54945 721.27055C99.54945 646.49585 124.5244 592.5419499999999 173.72355 560.8603C214.06385 534.8343 260.81055 530.9304 285.13485 530.9304C291.04075 530.9304 295.7955 531.2307 299.0988 531.4309C299.0988 531.4309 291.3911 481.1807 328.6283 431.5310999999999H326.9266C262.41215 431.5310999999999 52.00195 418.06765 52.00195 244.99475C52.00195 69.0189499999999 245.245 60.0600000000001 284.03375 60.0600000000001C287.0868 60.0600000000001 288.8886 60.1600999999999 288.8886 60.1600999999999C289.289 60.1600999999999 292.04175 60.0600000000001 296.7965000000001 60.0600000000001C321.67135 60.0600000000001 385.9856000000001 63.1631000000001 445.6952500000001 92.24215C523.17265 129.7796500000001 562.4619 195.2951000000001 562.4619 286.6864000000001C562.4619 374.9746 502.6021000000001 427.5271 458.90845 465.9655C432.2318 489.4389499999999 409.15875 509.65915 409.15875 529.3288C409.15875 549.3488 426.0256 564.4138499999999 447.29685 583.4829C481.7813 614.26365 514.3138 658.1575 514.3138 741.1404C514.3138 814.0632499999999 504.8543500000001 863.0622 446.5461 894.14325C452.6021500000001 897.24635 474.12365 899.4986 484.73425 901.0001C516.3158 905.3044 562.51195 910.2093 562.51195 935.98505V940.94H332.332C330.0297 940.8399 99.54945 932.3314 99.54945 721.27055zM471.12065 270.1699C475.52505 199.7996000000001 415.3149 147.89775 324.87455 141.3412C233.0328 134.5844499999998 157.4573 175.9257499999999 153.0529 246.246C150.90075 280.0798 165.7656 313.1128 194.84465 339.4891499999999C224.3241 366.1657999999999 264.81455 382.6823 308.8585499999999 385.9355499999999C314.06375 386.2358500000001 319.2189 386.53615 324.37405 386.53615C409.409 386.4861 466.9664999999999 336.5362 471.1206499999999 270.1699zM411.0106 769.4687C433.58315 689.9893 399.4991 607.0064 345.1448 591.64105C338.88855 589.8893 332.48215 589.03845 325.9256 589.03845C276.1759 589.03845 226.87665 639.3887500000001 208.55835 708.8081C198.34815 747.6469 199.199 781.781 210.9107 814.5137C222.37215 846.79595 243.09285 868.4676000000001 269.11885 875.8249500000001C275.3751 877.5767000000001 281.83155 878.4776 288.3881 878.4776C348.4481 878.4776 387.0867 853.5527 411.0106 769.4687zM800.8 600.6V750.75H700.6999999999999V600.6H550.55V500.5H700.6999999999999V350.35H800.8V500.5H950.95V600.6H800.8z" />
    <glyph glyph-name="ic1"
      unicode="&#xE006;"
      horiz-adv-x="1001" d="M1001 500.5C1001 776.9133921568628 776.9117565359477 1001 500.5 1001C224.0866078431373 1001 0 776.9133921568628 0 500.5C0 224.0882434640523 224.0866078431373 0 500.5 0C776.9117565359477 0 1001 224.0882434640523 1001 500.5zM45.4997026143791 500.5C45.4997026143791 751.796797385621 249.2032026143791 955.500297385621 500.5 955.500297385621S955.500297385621 751.796797385621 955.500297385621 500.5S751.7967973856208 45.4997026143791 500.5 45.4997026143791S45.4997026143791 249.2032026143792 45.4997026143791 500.5zM736.2812973856209 663.2540947712419C736.2812973856209 663.2540947712419 746.7917973856208 712.757797385621 728.4548513071895 727.1365408496731L692.6004052287581 755.1645408496731C674.3550539215686 769.4516895424836 628.7179591503267 747.3380947712418 628.7179591503267 747.3380947712418L600.6899591503267 711.4852843137255L708.2516617647058 627.4470816993464L736.2812973856209 663.2540947712419zM658.5206078431373 634.4066486928104L400.8547026143791 304.6229460784314L360.4957565359477 289.8794591503268L365.0002565359477 332.6509460784314L622.6661617647059 662.4346486928105L586.8133513071896 690.4626486928105L320.6831078431373 349.8037026143791L318.4537565359477 236.1002434640523L428.2464460784314 265.7655L694.3750539215687 606.4244460784314z" />
    <glyph glyph-name="ic2"
      unicode="&#xE007;"
      horiz-adv-x="1001" d="M500.5 1001C224.5291829268293 1001 0 776.4586097560975 0 500.5C0 224.5291829268293 224.5291829268293 0 500.5 0C776.4708170731707 0 1001 224.5291829268293 1001 500.5C1001 776.4586097560975 776.4708170731707 1001 500.5 1001zM500.5 24.4146341463415C237.9816463414635 24.4146341463415 24.4146341463415 237.9694390243903 24.4146341463415 500.5C24.4146341463415 763.0183536585366 237.9816463414635 976.5975731707318 500.5 976.5975731707318C763.0305609756098 976.5975731707318 976.5853658536583 763.0305609756098 976.5853658536583 500.5S763.0305609756098 24.4146341463415 500.5 24.4146341463415zM510.0827439024389 643.935975609756C418.1494390243903 643.935975609756 343.343 569.141743902439 343.343 477.2084390243903C343.343 420.4688292682928 371.4320365853659 368.9905731707317 418.772012195122 337.9961951219513V287.067268292683H416.5624878048781C409.8240487804879 287.067268292683 404.3551707317074 281.5861829268294 404.3551707317074 274.8599512195123C404.3551707317074 268.1093048780489 409.8240487804879 262.6526341463416 416.5624878048781 262.6526341463416H418.772012195122V230.7060853658538C418.772012195122 223.9554390243905 424.2408902439024 218.498768292683 430.9793292682927 218.498768292683H589.161743902439C595.9123902439023 218.498768292683 601.3690609756097 223.9554390243903 601.3690609756097 230.7060853658537V262.6526341463415H603.5907926829268C610.329231707317 262.6526341463415 615.7981097560976 268.1093048780488 615.7981097560976 274.8599512195122C615.7981097560976 281.5861829268294 610.329231707317 287.0672682926829 603.5907926829268 287.0672682926829H601.3690609756097V337.9961951219512C648.6968292682927 368.9905731707317 676.8102804878048 420.4688292682927 676.8102804878048 477.2084390243903C676.8102804878048 569.141743902439 602.0160487804878 643.935975609756 510.0827439024389 643.935975609756zM576.9910487804877 242.9011951219512H443.1988536585366V262.6160121951221H576.9666341463414V242.9011951219512H576.9910487804877zM443.1866463414634 287.0672682926829V324.5925609756098C443.3819634146342 324.5193170731708 443.5772804878049 324.4704878048781 443.7725975609756 324.3484146341464C448.5822804878049 322.248756097561 453.4896219512195 320.4664878048781 458.458 318.8062926829268C459.0927804878049 318.5987682926829 459.7275609756098 318.4156585365854 460.3623414634147 318.1959268292684C476.4271707317074 313.1420975609757 493.1756097560976 310.4442804878049 510.0827439024391 310.4442804878049C527.0142926829269 310.4442804878049 543.7749390243903 313.1420975609757 559.8641829268294 318.2203414634147C560.4623414634146 318.4400731707318 561.0605 318.598768292683 561.6464512195123 318.7940853658537C566.6514512195122 320.4420731707318 571.5710000000001 322.248756097561 576.4050975609757 324.3484146341464C576.6126219512197 324.4704878048781 576.7713170731708 324.5193170731708 576.991048780488 324.5925609756098V287.0428536585366L443.1866463414634 287.0672682926829L443.1866463414634 287.0672682926829zM470.2258536585366 441.5630731707317C455.3207195121952 441.5630731707317 443.1866463414635 453.6971463414634 443.1866463414635 468.6022804878049C443.1866463414635 483.5318292682927 455.3207195121952 495.6659024390244 470.2258536585367 495.6659024390244S497.2650609756099 483.5318292682927 497.2650609756099 468.6022804878049V441.5630731707317H470.2258536585366zM582.9238048780488 355.1108536585366C564.3564756097561 344.0021951219514 543.5063780487806 337.825292682927 522.3022682926829 336.043024390244V417.1728536585367H560.6820731707317C567.4571341463414 417.1728536585367 572.8893902439024 422.6417317073172 572.8893902439024 429.3801707317074C572.8893902439024 436.143024390244 567.4571341463414 441.5874878048782 560.6820731707317 441.5874878048782H521.7285243902438V468.6389024390245C521.7285243902438 496.9965000000001 498.6566951219511 520.0927439024391 470.2868902439024 520.0927439024391C441.9170853658537 520.0927439024391 418.8330487804879 496.9965 418.8330487804879 468.6389024390244C418.8330487804879 440.2690975609757 441.9170853658537 417.1728536585366 470.2868902439025 417.1728536585366H497.9364634146342V336.0430243902439C476.7323536585366 337.8252926829269 455.8700487804879 343.9411585365854 437.3027195121952 355.1108536585366C393.7958414634147 381.1246463414634 367.8186707317074 426.7555975609756 367.8186707317074 477.1840243902438C367.8186707317074 555.6648658536585 431.6629390243903 619.5091341463415 510.1437804878049 619.5091341463415C588.6368292682928 619.5091341463415 652.4322682926829 555.6648658536585 652.4322682926829 477.1840243902438C652.3956463414634 426.7800121951219 626.4306829268293 381.1246463414634 582.9238048780488 355.1108536585366zM509.4601707317073 674.7106219512195C516.2108170731707 674.7106219512195 521.6674878048781 680.1795 521.6674878048781 686.9179390243903V770.3183292682927C521.6674878048781 777.0567682926829 516.2108170731707 782.5256463414635 509.4601707317073 782.5256463414635C502.7339390243902 782.5256463414635 497.2528536585366 777.0567682926829 497.2528536585366 770.3183292682927V686.9179390243903C497.2650609756097 680.1672926829268 502.7461463414634 674.7106219512195 509.4601707317073 674.7106219512195zM371.8104634146341 631.7896951219512C374.9355365853658 631.7896951219512 378.0606097560976 632.9860121951219 380.4410365853659 635.3664390243903C385.2140975609756 640.1395 385.2140975609756 647.8423170731708 380.4410365853659 652.6275853658537L336.2871707317073 696.769243902439C331.5141097560976 701.554512195122 323.7990853658536 701.554512195122 319.0260243902439 696.769243902439C314.2529634146341 691.9961829268293 314.2529634146341 684.3055731707317 319.0260243902439 679.5203048780488L363.1798902439024 635.3664390243903C365.5725243902439 632.9738048780488 368.6853902439025 631.7896951219512 371.8104634146341 631.7896951219512zM664.7128292682927 705.2045L612.1237073170731 652.6275853658536C607.326231707317 647.8423170731708 607.326231707317 640.1395 612.1237073170731 635.3664390243902C614.4797195121951 632.9860121951219 617.6292073170731 631.7896951219511 620.7542804878049 631.7896951219511S627.0044268292683 632.9860121951219 629.3848536585366 635.3664390243902L681.973975609756 687.9433536585366C686.759243902439 692.7164146341463 686.759243902439 700.4314390243902 681.973975609756 705.2045S669.4980975609756 709.9531463414635 664.7128292682927 705.2045z" />
    <glyph glyph-name="ic3"
      unicode="&#xE008;"
      horiz-adv-x="1001" d="M500.4621618761057 0.0151352495578C224.516291939459 0.0151352495578 0 224.5314271890168 0 500.4924323752211C0 776.4685728109832 224.516291939459 1000.9848647504422 500.4621618761057 1000.9848647504422C776.4534375614255 1000.9848647504422 1001 776.4685728109832 1001 500.4924323752212C1001 224.5314271890168 776.4685728109832 0.0151352495578 500.4621618761057 0.0151352495578zM500.4621618761057 940.4438665194974C257.8895172142674 940.4438665194974 60.5409982309449 743.0802122866171 60.5409982309449 500.4924323752211C60.5409982309449 257.9197877133828 257.8895172142674 60.5712687300602 500.4621618761057 60.5712687300602C743.0802122866172 60.5712687300602 940.4590017690552 257.9197877133828 940.4590017690552 500.4924323752211C940.4590017690552 743.0802122866171 743.0802122866171 940.4438665194974 500.4621618761057 940.4438665194974zM506.0924747115836 301.3882244432013C504.2005685168666 299.9655109847741 502.3086623221495 299.0271255121944 499.9475633911427 299.0271255121944C497.5864644601359 299.0271255121944 495.225365529129 299.9655109847741 493.8026520707018 301.3882244432013L352.3788802032146 443.2811890469783C284.7394499296915 510.9206193205014 280.4864448039676 580.9211485250314 324.0002872824593 623.9657982672333C367.044937024661 667.0104480094351 437.045466229191 667.0104480094351 480.074980721835 623.9657982672333C488.1117982369929 615.9289807520754 494.7410375432814 606.93864251478 499.9324281415849 597.4791115411949C505.1389539894462 606.93864251478 511.7530580461769 615.9289807520754 519.7898755613347 623.9657982672333C562.8496605530943 667.4796407457249 632.8501897576243 667.4796407457249 676.3640322361159 623.9657982672333C719.4086819783176 580.9211485250314 715.140541603036 510.9206193205014 647.5162465790706 443.2811890469783L506.0924747115836 301.3882244432013z" />
    <glyph glyph-name="ic4"
      unicode="&#xE009;"
      horiz-adv-x="1001" d="M451.6371605362667 944.4757749782622H459.6932542009584C465.3102541807372 944.4757749782622 469.8139748852445 949.0098578448224 469.8139748852445 954.5964956625483C469.8139748852445 960.1831334802743 465.3102541807372 964.7172163468344 459.6932542009584 964.7172163468344H451.6371605362667C446.0404019978566 964.7172163468344 441.5164398519807 960.1831334802743 441.5164398519807 954.5964956625483C441.5164398519807 948.999737124138 446.0404019978566 944.4757749782622 451.6371605362667 944.4757749782622zM480.1067478211635 944.4757749782622H543.341010656583C548.9580106363618 944.4757749782622 553.461731340869 949.0098578448224 553.461731340869 954.5964956625483C553.461731340869 960.1831334802743 548.9580106363618 964.7172163468344 543.341010656583 964.7172163468344H480.1067478211635C474.5099892827533 964.7172163468344 469.9860271368775 960.1831334802743 469.9860271368775 954.5964956625483C469.9860271368775 948.999737124138 474.5403514448062 944.4757749782622 480.1067478211635 944.4757749782622zM500.5101207206843 431.1730633126404C481.2807514205407 431.1730633126404 465.6037550805815 415.5163084140499 465.6037550805815 396.2666976725376S481.2807514205407 361.360332032435 500.5101207206843 361.360332032435C519.7597314621964 361.360332032435 535.416486360787 377.0170869310255 535.416486360787 396.2869391139062C535.4063656401028 415.5365498554184 519.7496107415121 431.1730633126404 500.5101207206843 431.1730633126404zM500.5101207206843 381.601773401007C492.4236648939397 381.601773401007 485.8451964491538 388.1802418457929 485.8451964491538 396.2869391139061C485.8451964491538 404.3733949406508 492.4236648939397 410.9518633854367 500.5101207206843 410.9518633854367C508.5864558267446 410.9518633854367 515.1750449922148 404.3733949406508 515.1750449922148 396.2869391139061C515.1649242715306 388.1802418457929 508.5864558267446 381.601773401007 500.5101207206843 381.601773401007zM715.5045902169737 890.5424544517016C710.5251956403049 893.102996784826 704.4325217883647 891.1193355307059 701.8618587345561 886.1601823954057C701.6796857622389 885.8464400541928 701.6796857622389 885.5023355509271 701.6088407174489 885.17847248903V990.879279315714C701.6088407174489 996.4659171334398 697.084878571573 1001 691.4881200331628 1001H307.5383394334014C301.9213394536227 1001 297.4176187491153 996.4659171334398 297.4176187491153 990.879279315714V888.1640850908944C294.3915232645138 891.4634400339717 289.6044223808465 892.6374436333489 285.4043232968678 890.4817301275959C127.4805977392676 809.2831880775686 29.3298485430611 648.616747214527 29.3298485430611 471.1600307362547C29.3298485430611 211.3611307706308 240.7011000343761 -0.0101207206842 500.5 -0.0101207206842C703.7544335025175 -0.0101207206842 877.3551554000768 129.3832932279135 943.2916506582008 310.1191232078944C945.4068812812166 311.9813358138031 946.2570218186966 314.5115159848746 946.0343659636424 318.2865448001134C962.5615028410814 366.2182779608923 971.6499100155704 417.6315390370657 971.6499100155704 471.1600307362547C971.6802721776232 648.6774715386327 873.509281540048 809.3641538430429 715.5045902169737 890.5424544517016zM706.2542515115362 872.5174509129881C857.4679392554547 794.830798940408 951.438830809051 641.0464481426809 951.438830809051 471.1701514569389C951.438830809051 430.4949750267932 945.9432794774837 391.115250844236 935.7921966311446 353.5977392675874C930.3877317857358 364.6192040927749 922.6048975795198 372.0579337957252 912.5044183366022 375.7418761248054C898.0115463167047 381.0248923220028 882.496481507694 376.8652761207611 872.1733464097223 372.5538491092554C868.1857824601135 382.3001031282228 861.8400905910662 389.9210058034902 853.0856671991587 395.2849877661619C834.4230582573352 406.7821264635109 810.1333286150485 404.1203769235437 797.9479809111681 401.762249004105C788.7381250884678 414.8685822902555 776.826036843063 423.0562453238429 762.5254585161667 426.1025822498131C739.7538369765231 430.9908903403232 716.8506460679836 421.2648777627243 704.3313145815217 414.4131498594626L701.2748569348672 419.9087011910299C701.3861848623943 420.4450993872971 701.6088407174487 420.9511354215114 701.6088407174487 421.4774128970943V462.1525893272401C724.0262370331425 466.8384830040645 740.9075991345316 486.7560613107395 740.9075991345316 510.5195134774433C740.9075991345316 524.9212990111824 734.6226315895899 537.7847350009101 724.754928922411 546.8225385719775C734.6226315895898 555.860342143045 740.9075991345316 568.7237781327726 740.9075991345316 583.1255636665118C740.9075991345316 599.9563221644795 732.4264352010998 614.8034194083273 719.5528784906879 623.7400157725518C732.4264352010998 632.6664914160922 740.9075991345316 647.5135886599398 740.9075991345316 664.3443471579076C740.9075991345316 678.7461326916468 734.6226315895899 691.6095686813744 724.754928922411 700.6473722524418C734.6226315895898 709.6851758235093 740.9075991345316 722.5486118132369 740.9075991345316 736.950397346976C740.9075991345316 760.7340909550484 724.0262370331423 780.6314278203548 701.6088407174487 785.3173214971793V877.8308292722384C702.4792226962975 875.6042707216953 704.0074515196247 873.6914545123652 706.2542515115362 872.5174509129881zM705.4850767395304 711.4563019432592C704.1795037712574 711.8408893292622 702.9346551270903 712.3772875255293 701.6088407174489 712.6606677046893V764.1650152670212C712.7011505874265 760.0256405071482 720.6661577659595 749.4191252300163 720.6661577659595 736.8997937435545C720.6661577659595 725.9086910804198 714.492518148545 716.435696519928 705.4850767395304 711.4563019432592zM720.6661577659595 664.3038642751703C720.6661577659595 651.7845327887085 712.7011505874262 641.1678967908924 701.6088407174489 637.0386427517036V688.5429903140355C702.9548965684588 688.8263704931956 704.1795037712576 689.3627686894627 705.4850767395304 689.7473560754656C714.492518148545 684.7780822194811 720.6661577659595 675.294966938305 720.6661577659595 664.3038642751703zM705.4850767395304 557.6415889834793C704.1795037712574 558.0261763694821 702.9548965684588 558.5625745657493 701.6088407174489 558.8459547449092V610.3604230279255C712.7011505874265 606.2210482680525 720.6661577659595 595.6145329909207 720.6661577659595 583.0850807837745C720.6661577659595 572.0838573999555 714.492518148545 562.6108628394637 705.4850767395304 557.6415889834793zM720.6661577659595 510.4689098740218C720.6661577659595 497.9495783875599 712.7011505874262 487.3329423897437 701.6088407174489 483.203688350555V534.708035912887C702.9548965684588 534.9914160920468 704.1795037712576 535.5278142883142 705.4850767395304 535.9124016743169C714.492518148545 530.9431278183326 720.6661577659595 521.4701332578409 720.6661577659595 510.4689098740218zM317.6590601176875 980.7585586314278H681.377520069561V455.9789497098255L658.2719147473358 497.8584919014014V925.36785432633C658.2719147473358 930.954492144056 653.7580733221442 935.4885750106162 648.1511940630497 935.4885750106162H352.8690473783188C347.2722888399087 935.4885750106162 342.7483266940327 930.954492144056 342.7483266940327 925.36785432633V450.7060542333124C342.7483266940327 445.1092956949023 347.2722888399087 440.5853335490264 352.8690473783188 440.5853335490264H540.3047944512971L578.18665197258 356.0064707904476H317.6590601176875V980.7585586314278zM525.2856449558167 645.5704102885568C539.7380340929772 645.5704102885568 551.4780700867491 633.8202535741007 551.4780700867491 619.3881058783087C551.4780700867491 604.9458374618324 539.7380340929772 593.2058014680606 525.2856449558167 593.2058014680606S499.1033405455685 604.9559581825167 499.1033405455685 619.3881058783087C499.1033405455685 633.8202535741007 510.8433765393404 645.5704102885568 525.2856449558167 645.5704102885568zM579.3505348512729 640.8845166117324C579.2695690857986 641.0262067013124 579.1379997169029 641.0970517461024 579.0671546721129 641.2387418356823C578.9760681859543 641.370311204578 578.9760681859543 641.5221220148424 578.89510242048 641.6435706630538C570.0394718217296 654.8308697146786 556.5586718702606 663.7877075202717 540.9626412957758 666.8542858876103C525.366610721291 669.9309849756335 509.5276828503831 666.732837239399 496.3201423573898 657.8670859199644C469.439508219926 639.8015994985137 462.0412613997128 603.4682122419267 479.4691424180535 576.3345600873556L531.2366287181768 460.8267749175985H362.9897680626049V915.2471336420438H638.0203526580793V534.535983661254L579.3505348512729 640.8845166117324zM294.6546620023052 872.4668473095667C295.7375791155239 873.0234869472024 296.6079610943725 873.8129031605768 297.3973773077468 874.6529229773724V764.650809859867C283.643317897802 769.8832224536428 261.7319576163226 774.0327179342002 233.1409216832144 765.7843305765069C229.58854872303 764.7520170667098 226.8863163003256 761.8878531130567 226.0969000869513 758.2848765494509C226.015934321477 758.001496370291 219.4577073180596 729.0359937718642 207.3938082623906 691.0832912057913C191.7977776879057 641.9269508422137 166.3239237255576 575.2617636948214 133.5226679877864 536.8839908600085C72.5250844235941 465.5632721978444 86.845904191859 299.6947809030796 87.7770104948133 289.8068367945322C63.2949871595252 345.3493519098943 49.5814106323176 406.6707985359837 49.5814106323176 471.1701514569389C49.5712899116333 640.9958445392595 143.5118193031767 794.7801953369866 294.6546620023052 872.4668473095667zM265.7903666107213 750.1073342365478C264.8390188663984 734.723838796433 260.6692819444725 710.4341091541464 247.4921036135321 700.3538713525975C242.7657270539705 696.730653347623 236.9665541018745 695.3542353345601 230.0945847572443 695.8703920894586C237.3511414878774 719.6844478595839 242.1787252542819 738.6203162598831 244.4255252461934 747.8099306412148C252.3500495419894 749.6417810850708 259.3940711382525 750.1680585606535 265.7903666107213 750.1073342365478zM90.6108122864134 283.5927142943805C92.4932663336906 281.6191737609448 95.0335672254464 280.3338422340404 97.8774897377308 280.3338422340404C98.1912320789436 280.3338422340404 98.5150951408408 280.3540836754089 98.8591996441065 280.3743251167776C104.4357167411481 280.9107233130447 108.5143671769154 285.8496350069763 107.9577275392797 291.4059106626494C107.8059167290154 293.0657088548724 92.9183366024306 458.1953875396842 148.9162841485855 523.7371746911209C181.9604371827796 562.3679655430409 207.4747740278649 626.2094716195176 223.8298586536712 676.0945038723637C226.9571613451156 675.5985885588337 229.9528946676643 675.3455705417266 232.8980243867915 675.3455705417266C243.0389865124462 675.3455705417266 252.0565486421451 678.3210624229066 259.7887792449397 684.2720461852668C279.4938224172447 699.3519200048531 284.564303480072 729.9873415161871 285.8395142862921 747.2836531656321C290.9909611145937 745.7453036216207 294.7963520918853 743.9336946191333 297.4074980284311 742.4864315612805V616.1089923766C274.8990152265788 526.7329080136695 292.4685863344995 477.7587406224092 297.4074980284311 466.5652235455888V345.8857501061614C297.4074980284311 345.8047843406871 297.4479809111682 345.7440600165815 297.4479809111682 345.6732149717914S297.4074980284311 345.521404161527 297.4176187491154 345.4606798374214C297.4378601904839 344.8230744343113 299.5530908134997 280.3338422340404 260.932420682264 262.308838695327C255.8619396194367 259.9507107758882 253.6758639516309 253.9086405273695 256.0542333124381 248.8482801852264C257.7848765494511 245.1845792975149 261.4080945544255 243.0288657917619 265.2236062524013 243.0288657917619C266.6809900309385 243.0288657917619 268.1080116474228 243.312245970922 269.4945503811701 243.9802135360848C309.7041736598387 262.7440296847512 316.5052979596789 313.610771843973 317.5173700281075 335.7245465391382H513.2521080622006C464.4398722018887 274.200685499363 337.8094150001012 111.226720320304 322.2032637049321 57.0808646593736C219.862536145431 101.3185347703882 137.0750409479708 182.4462317756253 90.6108122864134 283.5927142943805zM340.9670798535983 49.490324146159C344.3777627242028 81.967716822033 462.15258932724 239.5270964349989 539.1206701312357 335.754908701191H585.6759852789517C586.1921420338504 335.754908701191 586.6576951853275 335.967443835561 587.1536104988575 336.0281681596668L596.6468465007179 314.774654722666L556.639637635735 279.929013406669C556.184205204942 279.5343052999819 555.7692556568863 279.0991143105577 555.3947889915678 278.6234404383961C554.3017511576649 277.2267809839646 528.6052413402625 244.0713000222434 553.9070430509777 180.8572786281925C572.842911451277 133.5327887084707 609.2673851940226 63.993316886741 623.4060319899703 37.3859422077528C584.2995672658889 26.3037530584595 543.1183548015288 20.2414413685722 500.5101207206843 20.2414413685722C444.3502416435808 20.2414413685722 390.6294562513902 30.6556629527026 340.9670798535983 49.490324146159zM643.1009544415909 43.4887367803774C630.8447616929205 66.4222898509697 591.9407113825248 140.2833094048897 572.6911006410127 188.3972155379856C553.5123349442905 236.2682243746589 568.0962934503467 261.3979738337412 570.7884051523669 265.4260206660871L605.3000626857823 295.5149232604696L628.8408589974318 242.9985036297092C630.5208986310233 239.2234748144704 634.1744787980506 237.0070369846118 638.0507148201322 237.0070369846118C639.4574949952479 237.0070369846118 640.8339130083108 237.2802964430876 642.1799688593209 237.8976604048289C647.280812084201 240.1748225587933 649.5579742381655 246.1561684832065 647.2605706428325 251.2570117080865L556.1538430428891 454.6227731381312V454.6430145794998L499.6498594625199 580.7269528643359C507.0177441206802 575.8386447738258 515.8126503953248 572.9542393788042 525.2755242351323 572.9542393788042C548.9782520777303 572.9542393788042 568.3493114674538 590.8577942693062 571.1325096556326 613.8115887812671L637.9798697753422 492.6058378662569V489.9744504883425C637.9798697753422 485.5921784320467 640.7327058014679 481.9892018684408 644.6190625442338 480.5318180899036L653.7378318807756 463.9844397710958C650.6206499100155 466.0996703941117 646.5217580328796 466.4741370594303 643.030109396801 464.4803550846259L600.7052554951165 440.2715912078136C595.8574302873435 437.5187551816878 594.1672699330677 431.3147534022204 596.9504681212463 426.4871696358159C598.8430428892078 423.2384182961601 602.2233635977594 421.3863264109357 605.7251329545223 421.3863264109357C607.4254140294823 421.3863264109357 609.1661779871796 421.82151740036 610.7247689725597 422.7323822619458L653.0698643156127 446.9411461387581C656.4704264655328 448.8640830687725 658.1909489818614 452.4974217944311 658.0290174509129 456.1510019614584L672.8255110913391 429.3513335894688C670.4269002891634 429.746041696156 667.8562372353547 429.3513335894688 665.6499201261803 427.8838290902474L621.3009220876386 398.6349463126606C616.6352698521828 395.538005783269 615.3499383252785 389.2732796796959 618.4367581339857 384.60762744424C620.3698157846843 381.6422562837442 623.6185671243402 380.0735445776799 626.8976806260488 380.0735445776799C628.8003761146946 380.0735445776799 630.7536752067618 380.6200634946313 632.4741977230905 381.7333427699027L676.8130750409479 410.9822255474895C678.584201160698 412.1157462641296 679.6569975532324 413.7957858977211 680.4059308838695 415.597274179524L706.6590803389075 368.050128404748C708.5314136655005 364.690049137565 711.9319758154206 362.7974743696035 715.5349523790264 362.7974743696035C717.1745091298808 362.7974743696035 718.8545487634723 363.1921824762907 720.3928983074837 364.0625644551393C725.2508442359411 366.7850383192122 727.052332517744 372.9181950538896 724.3905829777767 377.7862617030312L714.0472064384363 396.5500778516977C723.9452712676681 401.9646634177907 741.8184639961173 409.7677390653753 758.1735486219236 406.2356075465595C769.0027197541096 403.917962509858 777.6053323357529 396.9852688411219 784.4368187976461 385.1237841991387C786.7544638343476 381.0653752047399 791.652892645542 379.1424382747256 796.0857683052593 380.4581319636829C796.3590277637351 380.5593391705256 824.8286150486318 388.8279679695874 842.4386690392896 377.9481932339799C849.5940185630798 373.5153175742626 853.9965320607442 366.3700887711566 855.7575374598101 356.1785230420805C856.354659980183 352.8386852162661 858.5407356479889 350.0150041453503 861.6882797808017 348.6689482943401C864.7953410308776 347.2722888399086 868.3679554324304 347.6163933431744 871.2321193860835 349.4381230663459C876.6467049521765 352.9601338644774 893.4268598467229 361.0870725739591 905.490758902392 356.6744383556104C910.3487048308494 354.8425879117547 914.3666309425108 350.9056275655674 917.4332093098496 344.8534365963642C915.9555840899438 342.3232564252927 915.5912381453094 339.1554708511111 916.7652417446868 336.2103411319839C919.8014579499724 328.2048510707137 922.1393444280428 322.0818150567204 924.3557822579012 317.4465249833175C877.5575698137626 188.6097506723556 773.496319737933 87.0685600469133 643.1009544415909 43.4887367803774z" />
    <glyph glyph-name="ic5"
      unicode="&#xE00A;"
      horiz-adv-x="1001.0000000000001" d="M500.5226286282667 0C224.5212496609097 0 0 224.5212496609097 0 500.4773713717335C0 776.4561217108238 224.5212496609097 1001.0000000000002 500.5226286282667 1001.0000000000002C776.4787503390904 1001.0000000000002 1001.0000000000002 776.4561217108238 1001.0000000000002 500.4773713717335C1001.0000000000002 224.5212496609097 776.4787503390904 0 500.5226286282667 0zM500.5226286282667 967.0570576001448C243.2577538656299 967.0570576001448 33.9429423998553 757.7422461343702 33.9429423998553 500.4773713717335S243.2577538656299 33.9429423998552 500.5226286282667 33.9429423998552S967.057057600145 243.2124966090966 967.057057600145 500.4773713717334S757.7875033909035 967.0570576001448 500.5226286282667 967.0570576001448zM367.8736097296321 298.6526358621938C344.1361786779999 298.6526358621938 330.6947734876572 304.3097929288363 326.8026494258072 316.0087937426531C324.1550999186184 323.860927751153 326.9610498236732 332.3240347228503 333.9306673297767 337.5738764806945C353.2328872411611 352.1240844560992 363.7099421285831 367.1494936251018 365.1581743376437 382.355931820237C321.4849217831631 410.0533728185188 293.6517090152817 451.5769056876752 288.266095487838 497.5582783253459C283.6272266931911 537.0678632787774 295.9372004702053 577.5504792476715 322.9105253639571 611.4934216475269C358.6411293968714 656.456506013202 416.0047020526269 686.3941812098744 480.3152635862195 693.5674563703772C490.1134596256444 694.6762591554391 500.0247988064021 695.2193462338367 509.7777375892939 695.2193462338367C615.3629170811106 695.2193462338367 702.5283931639391 630.7051270458451 712.5302468577631 545.1689121982097C717.9611176417399 498.9838819061398 705.4927434668598 454.1565693100641 677.5237589293789 418.9011664707478C646.8393389999097 380.2288407631793 598.753503933448 355.4731214395514 542.204561895289 349.1597341531783C532.4742517406638 348.0509313681164 522.6307984447059 347.5304729179853 512.9004882900806 347.5304729179853L512.9004882900806 347.5304729179853C505.2293833077134 347.5304729179853 497.5130210688129 347.8699023419839 489.9098019712453 348.548761189981C441.0319649154535 302.3637308979113 384.5509087620943 298.6526358621938 367.8736097296321 298.6526358621938zM509.7551089610273 661.2311465774483C501.2693733610635 661.2311465774483 492.6026087349671 660.7559453838503 484.0489872502035 659.8055429966544C428.6767338819063 653.6052988516142 379.6178677999821 628.283863821322 349.4539063206439 590.3356542182838C327.8209376978028 563.1360430418664 318.3395424541099 532.3837372275975 321.9601229767611 501.450402387196C326.4179627452754 463.434306899358 351.3320824667693 428.9256487928385 390.3212089700698 406.7722217198662C395.0732209060495 404.0794149561443 398.2412288633693 399.2595171353649 398.8069445700336 393.8512749796546C400.5267203182929 377.9886065647888 397.6076272719053 356.129351659282 378.5090650149201 333.0934080839136C406.4554209241344 335.650443078036 442.8196265485127 348.4582466769147 471.4222126774575 377.9886065647888C475.1106790849084 381.8354733701058 480.4057780992858 383.6910208879645 485.6782484853967 383.034790668234C494.5939280224253 381.9712451397052 503.7132652138532 381.4281580613074 512.8099737770144 381.4281580613074L512.8099737770144 381.4281580613074C521.2730807487117 381.4281580613074 529.8493308617418 381.9033592549055 538.3350664617057 382.8311330138348C586.5340446695002 388.2167465412786 625.4779139162675 407.994167646261 650.8898634596259 439.9910480151912C673.1790623021975 468.0731756940048 683.1130301112219 504.0074373813183 678.7230762275072 541.1862736232932C670.780427705941 609.6152455014017 598.1199023419839 661.2311465774483 509.7551089610273 661.2311465774483z" />
    <glyph glyph-name="ic6"
      unicode="&#xE00B;"
      horiz-adv-x="1000.9999999999999" d="M500.4999999999999 1000.9999999999998C224.5233644859813 1000.9999999999998 0 776.4766355140187 0 500.4999999999999S224.5233644859813 0 500.4999999999999 0S1000.9999999999998 224.5233644859812 1000.9999999999998 500.4999999999999S776.4766355140187 1000.9999999999998 500.4999999999999 1000.9999999999998zM500.4999999999999 46.7757009345794C250.3154859813084 46.7757009345794 46.7757009345794 250.312367601246 46.7757009345794 500.4999999999999C46.7757009345794 750.6845140186915 250.3154859813084 954.2242990654204 500.4999999999999 954.2242990654204C750.6845140186916 954.2242990654204 954.2242990654204 750.6845140186915 954.2242990654204 500.4999999999999C954.2242990654204 250.312367601246 750.6845140186916 46.7757009345794 500.4999999999999 46.7757009345794zM854.4953862928348 597.7996947040497C851.7449750778816 606.2660965732086 844.426137071651 612.4373707165108 835.6135950155763 613.715906542056L618.5493956386292 645.258320872274L521.4742242990653 841.9563800623051C517.5325919003114 849.9394330218067 509.4029750778815 854.9943271028036 500.4999999999999 854.9943271028036C491.5970249221184 854.9943271028036 483.4674080996885 849.9394330218067 479.5257757009346 841.9563800623051L382.4506043613707 645.258320872274L165.3832866043614 613.715906542056C156.5738629283489 612.4373707165108 149.2550249221184 606.2660965732086 146.5046137071651 597.7996947040497C143.7542024922119 589.3332928348909 146.0493302180686 580.0405202492211 152.4232990654206 573.8255887850466L309.4929844236761 420.7193644859813L272.4123271028038 204.5283115264797C270.9092679127727 195.7531900311526 274.5141152647976 186.8876355140186 281.7175732087228 181.651875389408C285.7932959501558 178.6925327102803 290.6174299065421 177.1863551401868 295.4665109034268 177.1863551401868C299.1867383177571 177.1863551401868 302.9256760124611 178.0750934579439 306.34653894081 179.8712803738316L500.4968816199377 281.9420965732086L694.6472242990654 179.8712803738316C702.5336074766356 175.7300716510903 712.078968847352 176.4192336448596 719.2761900311526 181.651875389408C726.4796479750779 186.8845171339564 730.0876137071651 195.7500716510904 728.5783177570094 204.5251931464175L691.4976604361372 420.7131277258567L848.5704641744549 573.819352024922C854.9506697819314 580.0405202492211 857.2426791277258 589.3332928348909 854.4953862928348 597.7996947040497zM650.048152647975 445.6352211838006C644.5348566978192 440.2622523364485 642.0214423676011 432.5193146417445 643.3249252336448 424.9322959501557L674.4713052959501 243.3303146417445L511.3831464174454 329.0701744548286C504.5694859813083 332.6500747663552 496.4336323987538 332.6500747663552 489.6168535825545 329.0701744548286L326.5286947040498 243.3303146417445L357.6750747663551 424.9322959501557C358.9754392523364 432.5193146417445 356.4620249221183 440.2591339563862 350.9487289719626 445.6352211838006L219.0069501557632 574.2434517133955L401.3448691588785 600.7403271028036C408.9630716510904 601.847352024922 415.5459719626168 606.6309470404983 418.9543613707165 613.5350404984422L500.4999999999999 778.759289719626L582.0425202492212 613.53192211838C585.4509096573208 606.6309470404983 592.0338099688473 601.8442336448597 599.6551308411215 600.7372087227413L781.9930498442367 574.2403333333332L650.048152647975 445.6352211838006z" />
    <glyph glyph-name="lab"
      unicode="&#xE00C;"
      horiz-adv-x="1001" d="M500.5 1001C224.527875 1001 0 776.472125 0 500.5S224.527875 0 500.5 0S1001 224.527875 1001 500.5S776.472125 1001 500.5 1001zM500.5 35.75C244.226125 35.75 35.75 244.2440000000001 35.75 500.5S244.226125 965.25 500.5 965.25S965.25 756.756 965.25 500.5S756.7738750000001 35.75 500.5 35.75zM268.125 697.125H732.875C742.759875 697.125 750.75 705.133 750.75 715S742.759875 732.875 732.875 732.875H268.125C258.240125 732.875 250.25 724.867 250.25 715S258.240125 697.125 268.125 697.125zM804.375 446.875H196.625C186.740125 446.875 178.75 438.867 178.75 429S186.740125 411.125 196.625 411.125H804.375C814.259875 411.125 822.25 419.1330000000001 822.25 429S814.259875 446.875 804.375 446.875zM804.375 589.875H196.625C186.740125 589.875 178.75 581.867 178.75 572S186.740125 554.125 196.625 554.125H804.375C814.259875 554.125 822.25 562.133 822.25 572S814.259875 589.875 804.375 589.875zM732.875 303.875H268.125C258.240125 303.875 250.25 295.867 250.25 286S258.240125 268.125 268.125 268.125H732.875C742.759875 268.125 750.75 276.1330000000001 750.75 286S742.759875 303.875 732.875 303.875z" />
    <glyph glyph-name="linkedin"
      unicode="&#xE00D;"
      horiz-adv-x="1001" d="M375.375 625.625H548.503033203125V536.882048828125H550.978162109375C575.064724609375 580.08341015625 634.02792578125 625.625 721.893046875 625.625C904.640064453125 625.625 938.4375 511.8629140625 938.4375 363.9045566406251V62.5625H757.974013671875V329.7024199218751C757.974013671875 393.422326171875 756.6699765625 475.3811562500001 664.102892578125 475.3811562500001C570.1144667968749 475.3811562500001 555.7720136718749 405.9895683593751 555.7720136718749 334.3300898437501V62.5625H375.3749999999999V625.625zM62.5625 625.625H250.25V62.5625H62.5625V625.625zM250.25 782.03125C250.25 730.20212890625 208.23537109375 688.1875 156.40625 688.1875S62.5625 730.20212890625 62.5625 782.03125C62.5625 833.86037109375 104.57712890625 875.875 156.40625 875.875S250.25 833.86037109375 250.25 782.03125z" />
    <glyph glyph-name="location"
      unicode="&#xE00E;"
      horiz-adv-x="1001" d="M500.5 1001C327.7375664062501 1001 187.6875 860.94993359375 187.6875 688.1875C187.6875 375.375 500.5 0 500.5 0S813.3125 375.375 813.3125 688.1875C813.3125 860.94993359375 673.260478515625 1001 500.5 1001zM500.5 500.5C396.8417578125 500.5 312.8125 584.5292578125 312.8125 688.1875S396.8417578125 875.875 500.5 875.875S688.1875 791.8457421875 688.1875 688.1875S604.1582421874999 500.5 500.5 500.5z" />
    <glyph glyph-name="logo"
      unicode="&#xE00F;"
      horiz-adv-x="1164.8" d="M-18.2 1019.2H1183V-18.1999999999999H-18.2V1019.2zM0 970.0600144550205C3.6400000542402 931.840013885498 580.5800086513161 9.1000001356006 600.6000089496374 9.1000001356006C622.4400092750788 9.1000001356006 1164.8000173568726 913.6400136142968 1164.8000173568726 950.0400141566992C1164.8000173568726 975.5200145363808 1062.8800158381462 966.4200144007802 819.000012204051 919.1000136956573L582.4000086784363 871.7800129905343L342.1600050985813 928.2000138312578C103.7400015458465 982.8000146448612 0 995.540014834702 0 970.0600144550205zM338.5200050443411 882.700013153255C462.2800068885088 848.1200126379729 576.9400085970759 819.000012204051 593.3200088411569 819.000012204051C611.520009112358 819.000012204051 729.8200108751654 848.1200126379729 859.0400128006935 884.5200131803751C990.0800147533416 919.1000136956573 1099.2800163805484 944.5800140753388 1104.7400164619087 940.9400140210986C1117.4800166517496 926.3800138041375 611.520009112358 54.6000008136034 593.3200088411569 60.0600008949638C586.0400087326765 61.8800009220839 484.1200072139501 229.3200034171344 369.460005505383 427.7000063732267C254.8000037968159 627.9000093564391 140.1400020882487 826.2800123125314 116.4800017356873 869.9600129634142C91.0000013560057 911.8200135871768 80.080001193285 946.400014102459 91.0000013560057 946.400014102459C101.9200015187264 946.400014102459 212.9400031730533 917.280013668537 338.5200050443411 882.700013153255zM172.9000025764108 824.4600122854114C360.3600053697824 487.7600072681904 593.3200088411569 96.460001437366 600.6000089496374 103.7400015458466C618.8000092208385 120.1200017899275 1068.3400159195064 900.9000134244562 1064.7000158652663 906.3600135058164C1061.060015811026 910.0000135600566 955.5000142380596 882.700013153255 828.1000123396516 848.1200126379729L595.140008868277 782.6000116616488L371.2800055325032 846.3000126108527C247.5200036883354 880.8800131261348 140.1400020882487 910.0000135600566 134.6800020068884 910.0000135600566C129.2200019255281 910.0000135600566 145.6000021696091 871.7800129905343 172.9000025764108 824.4600122854114zM899.940132 805.513436M904.931482 2785.099408" />
    <glyph glyph-name="mail"
      unicode="&#xE010;"
      horiz-adv-x="1001" d="M78.7787 736.4357C103.2031 723.3226 441.5411000000001 541.541 454.1537 534.78425S483.0826 524.8243 499.499 524.8243C515.9154 524.8243 532.2316999999999 528.0275000000001 544.8443 534.78425S895.7949 723.3226 920.2193 736.4357C944.6937500000003 749.5988500000001 967.8168500000002 800.8000000000001 922.922 800.8000000000001H76.12605C31.2312 800.8000000000001 54.3543 749.5988500000001 78.7787 736.4357zM931.5806499999998 626.17555C903.8029 611.7111 561.8612999999999 433.5331 544.8443 424.6242000000001S515.9154 414.6642500000001 499.4989999999999 414.6642500000001S471.1706999999999 415.7153000000001 454.1536999999999 424.6242000000001S97.1470499999999 611.76115 69.3692999999999 626.2256C49.8497999999999 636.4358 50.0499999999999 624.47385 50.0499999999999 615.26465S50.0499999999999 250.25 50.0499999999999 250.25C50.0499999999999 229.2290000000001 78.3782999999999 200.2000000000001 100.0999999999999 200.2000000000001H900.9C922.6217 200.2000000000001 950.95 229.2290000000001 950.95 250.25C950.95 250.25 950.95 606.0054 950.95 615.2146S951.1502 636.38575 931.5806499999998 626.17555z" />
    <glyph glyph-name="phone"
      unicode="&#xE011;"
      horiz-adv-x="1001" d="M562.01145 438.9885500000001C482.7822999999999 359.8094500000001 390.9906 284.0337500000001 354.7043499999999 320.3200000000001C302.8025 372.2218500000002 270.7704999999999 417.4670500000001 156.2561 325.4251000000001C41.79175 233.4332000000002 129.7295999999999 172.0719000000002 180.02985 121.8217000000001C238.0878499999999 63.7637000000001 454.5040499999999 118.7186000000001 668.4177499999998 332.5822500000002C882.2814 546.49595 937.0861499999997 762.9121500000001 878.9780999999998 820.9701500000001C828.6778499999999 871.32045 767.6168499999999 959.20825 675.6249499999999 844.7439C583.5829999999999 730.2795500000001 628.7781499999999 698.24755 680.7800999999998 646.29565C716.9161999999999 610.0094 641.1905499999999 518.2176999999999 562.01145 438.9885500000001z" />
    <glyph glyph-name="pinterest"
      unicode="&#xE012;"
      horiz-adv-x="1001" d="M431.2808500000001 338.98865C404.9545500000001 201.1509500000001 372.8725000000001 69.0189499999999 277.7274500000001 0C248.3981500000001 208.3081 320.8205000000001 364.71435 354.5041500000001 530.78025C297.0968000000001 627.37675 361.4110500000001 821.6708500000001 482.3819 773.773C631.28065 714.9142 353.4531000000001 414.8144000000001 539.9394000000001 377.2769000000001C734.6839500000001 338.1878500000001 814.1633500000002 715.1144 693.3927000000001 837.68685C518.9684500000002 1014.76375 185.5854000000001 841.841 226.6264000000001 588.3377499999999C236.5863500000001 526.37585 300.6003000000001 507.6071 252.2019500000001 422.07165C140.5404000000001 446.79635 107.2071000000001 534.88435 111.5114000000001 652.30165C118.4183000000001 844.49365 284.1338500000001 978.978 450.3999500000001 997.64665C660.6600000000001 1021.2202 858.00715 920.4195 885.2844000000001 722.67195C915.96505 499.3989 790.3896000000001 257.5573000000001 565.5149500000001 274.9747C504.5540500000001 279.7294500000001 479.0285500000001 309.95965 431.2808500000001 338.98865z" />
    <glyph glyph-name="twitter"
      unicode="&#xE013;"
      horiz-adv-x="1001" d="M1001 810.935125C964.1715416666668 794.5854583333332 924.5903333333334 783.5744583333333 883.0488333333334 778.6111666666666C925.4662083333334 804.0115416666666 958.0404166666668 844.2600833333333 973.347375 892.2246666666666C933.68275 868.7011666666666 889.7221666666668 851.60075 842.9254166666667 842.3832083333333C805.5130416666668 882.2980833333332 752.0846666666667 907.2396666666666 693.0256666666667 907.2396666666666C560.434875 907.2396666666666 463.0042083333333 783.53275 492.9507916666666 655.1127916666667C322.322 663.663 171.0041666666666 745.4113333333332 69.694625 869.6604583333333C15.890875 777.3599166666665 41.79175 656.6142916666665 133.2164166666667 595.469875C99.5995 596.5542916666666 67.9011666666666 605.7718333333332 40.2485416666666 621.1622083333332C37.9962916666666 526.0255 106.1894166666666 437.0199166666665 204.95475 417.2084583333333C176.050875 409.3672916666666 144.39425 407.532125 112.1954166666666 413.7049583333334C138.3048333333333 332.1234583333334 214.1305833333333 272.7724999999999 304.0537499999999 271.1041666666667C217.7175 203.4115416666666 108.9421666666666 173.173 -1e-13 186.0191666666667C90.8824583333333 127.7526250000001 198.8653333333333 93.7603333333333 314.8145 93.7603333333333C696.1120833333333 93.7603333333333 911.5356249999998 415.7903750000001 898.5226250000001 704.6205833333333C938.6460416666666 733.6078750000001 973.4725 769.7690000000001 1001 810.9351250000001z" />
  </font>
</defs>
</svg>
