<?xml version="1.0" standalone="no"?>
<!DOCTYPE svg PUBLIC "-//W3C//DTD SVG 1.1//EN" "http://www.w3.org/Graphics/SVG/1.1/DTD/svg11.dtd" >
<svg xmlns="http://www.w3.org/2000/svg">
<defs>
  <font id="myfont" horiz-adv-x="1001">
    <font-face font-family="myfont"
      units-per-em="1001" ascent="1001"
      descent="0" />
    <missing-glyph horiz-adv-x="0" />
    <glyph glyph-name="external"
      unicode="&#xE001;"
      horiz-adv-x="1000.9980434965315" d="M768.62608306442 429.0083850148644H732.8729386838459C727.6510309268276 429.0083850148644 723.3662883311475 427.3355745494277 720.0324064210841 423.9743015908075C716.6711334624639 420.6325936668707 714.9983229970272 416.349807574659 714.9983229970272 411.1337693280458V232.3856559563902C714.9983229970272 207.8061028835462 706.2527524935158 186.7697775918786 688.7518289691515 169.2649410605775C671.250905444787 151.764017536213 650.206754139246 143.0204035361701 625.6272010664019 143.0204035361701H160.8715411813685C136.2939446119928 143.0204035361701 115.2517498099201 151.764017536213 97.746913278619 169.2649410605775C80.2459897542546 186.7678210884103 71.4965062438065 207.8041463800778 71.4965062438065 232.3856559563902V697.1354463310186C71.4965062438065 721.7130429003943 80.2440332507862 742.7474116885935 97.746913278619 760.2502917164262C115.2517498099201 777.7551282477274 136.2939446119928 786.5026552547071 160.8715411813685 786.5026552547071H554.116999298317C559.3389070553352 786.5026552547071 563.6236496510153 788.1832917340171 566.9712270853571 791.530869168359C570.3188045196989 794.8823596096374 571.9916149851356 799.1612326949125 571.9916149851356 804.3792274449941V840.1343283290366C571.9916149851356 845.3425405617764 570.3188045196988 849.6292396609249 566.9712270853571 852.9748605917983C563.6236496510153 856.3263510330769 559.3389070553352 857.9991614985136 554.116999298317 857.9991614985136H160.8715411813685C116.5606506302443 857.9991614985136 78.6670914552985 842.2649606060666 47.1947766634677 810.7985153246408C15.734200892447 779.3340265466834 0 741.4404673717377 0 697.1295768206135V232.3778299425167C0 188.0688958948609 15.734200892447 150.16946720951 47.1967331669361 118.7147609488943C78.6690479587668 87.2463591640003 116.5626071337126 71.5043322576798 160.8734976848368 71.5043322576798H625.6272010664019C669.9361351140577 71.5043322576798 707.8336072959403 87.2463591640003 739.3020090808343 118.7147609488943C770.7723673691967 150.16946720951 786.5065682616438 188.0669393913925 786.5065682616438 232.3778299425167V411.1200738037673C786.5065682616438 416.3419815607855 784.8318012927388 420.6267241564655 781.4705283341184 423.9743015908074C778.1190378928399 427.3355745494277 773.8342952971599 429.0083850148644 768.62608306442 429.0083850148644zM990.3800991738123 918.8835929300056C983.3034261288008 925.960265975017 974.9139392565286 929.49566774232 965.2390296055524 929.49566774232H679.2412656095163C669.5604864481351 929.49566774232 661.1768690862679 925.960265975017 654.1060655516617 918.8835929300056C647.0293925066503 911.810832891931 643.4861647254738 903.4311285370006 643.4861647254738 893.748392872151S647.0293925066503 875.6839963489026 654.1060655516617 868.6073233038913L752.4144953256963 770.2969370263884L388.2172442032966 406.0918598901153C384.4881485926271 402.3686337898507 382.6294702976974 398.0838911941708 382.6294702976974 393.2513276273536C382.6294702976974 388.4011555293213 384.4940181030321 384.1183694371095 388.2172442032966 380.395143336845L451.8975190910566 316.7226944629585C455.620745191321 312.9994683626939 459.9054877870011 311.1427465712326 464.7458773676917 311.1427465712326S473.8729660475307 312.9975118592256 477.5942356443268 316.7226944629585L841.7934432701949 680.9219020888264L940.1096990581028 582.6115158113234C947.1805025927092 575.5348427663123 955.562163451108 571.9955279920723 965.2448991159574 571.9955279920723S983.3092956392059 575.5348427663123 990.3879251876854 582.6115158113234C997.4645982326967 589.6862323528665 1000.9999999999998 598.0639802043286 1000.9999999999998 607.7467158691782V893.748392872151C1000.9980434965316 903.4369980474056 997.4509027084184 911.810832891931 990.3800991738123 918.8835929300056z" />
    <glyph glyph-name="gallery"
      unicode="&#xE002;"
      horiz-adv-x="1001" d="M742.693123046875 744.7615957031251C687.133712890625 744.7615957031251 641.9342617187501 699.5601894531251 641.9342617187501 644.002734375S687.133712890625 543.243873046875 742.693123046875 543.243873046875C798.2505781250001 543.243873046875 843.4519843749999 588.4433242187499 843.4519843749999 644.002734375C843.4519843749999 699.564099609375 798.252533203125 744.7615957031251 742.693123046875 744.7615957031251zM742.693123046875 582.345435546875C708.6943144531251 582.345435546875 681.0358242187501 610.00392578125 681.0358242187501 644.002734375S708.6943144531251 705.6600332031251 742.693123046875 705.6600332031251C776.6899765625001 705.6600332031251 804.3504218749999 678.0015429687501 804.3504218749999 644.002734375C804.3504218749999 610.0078359375 776.6919316406251 582.345435546875 742.693123046875 582.345435546875zM743.3793554687501 118.905896484375C742.8905859375001 120.098494140625 742.2845117187501 121.2324394531251 741.58068359375 122.2881816406251C740.87685546875 123.3634746093751 740.05572265625 124.3605644531251 739.15638671875 125.259900390625C738.25705078125 126.159236328125 737.2599609375 126.9803691406251 736.18466796875 127.684197265625C735.12892578125 128.3880253906251 733.99498046875 128.9940996093751 732.8023828125 129.4828691406251C731.6293359375 129.9716386718751 730.3976367187499 130.362654296875 729.14638671875 130.5972636718751C726.6243359375 131.105583984375 724.0436328124999 131.105583984375 721.52158203125 130.5972636718751C720.2703320312501 130.362654296875 719.0386328125 129.9716386718751 717.8655859375 129.4828691406251C716.67298828125 128.9940996093751 715.53904296875 128.3880253906251 714.48330078125 127.684197265625C713.4080078124999 126.9803691406251 712.41091796875 126.1592363281251 711.51158203125 125.259900390625C710.6122460937501 124.3605644531251 709.79111328125 123.363474609375 709.08728515625 122.2881816406251C708.3834570312499 121.2324394531251 707.7773828124999 120.098494140625 707.2886132812499 118.905896484375C706.7998437499999 117.732849609375 706.408828125 116.501150390625 706.17421875 115.2499003906251C705.92005859375 113.998650390625 705.783203125 112.708298828125 705.783203125 111.437498046875C705.783203125 110.1666972656251 705.92005859375 108.876345703125 706.17421875 107.6250957031251C706.408828125 106.3738457031251 706.7998437499999 105.1421464843751 707.2886132812499 103.969099609375C707.7773828124999 102.776501953125 708.3834570312499 101.6425566406251 709.08728515625 100.586814453125C709.79111328125 99.511521484375 710.61224609375 98.5144316406251 711.51158203125 97.615095703125C711.959294921875 97.1673828125001 712.432423828125 96.7392207031251 712.925103515625 96.3345195312501C713.4236484375 95.9278632812501 713.9436992187501 95.5427128906251 714.4833007812501 95.1907988281251C715.5390429687501 94.4869707031252 716.6729882812501 93.8808964843752 717.8655859375001 93.3921269531252C719.0386328125002 92.9033574218752 720.2703320312502 92.5123417968752 721.5215820312501 92.2777324218752C722.7728320312501 92.0235722656252 724.0631835937502 91.8867167968751 725.3339843750001 91.8867167968751C726.60478515625 91.8867167968751 727.8951367187501 92.0235722656252 729.1463867187501 92.2777324218752C730.39763671875 92.5123417968752 731.6293359375001 92.9033574218752 732.8023828125001 93.3921269531252C733.9949804687501 93.8808964843752 735.1289257812501 94.4869707031252 736.1846679687501 95.1907988281251C736.7242695312501 95.5446679687501 737.2443203125001 95.9278632812502 737.7428652343751 96.3345195312501C738.2375000000002 96.7392207031251 738.7086738281253 97.1673828125001 739.1563867187502 97.615095703125C740.0557226562502 98.5144316406251 740.8768554687503 99.5115214843751 741.5806835937502 100.586814453125C742.2845117187503 101.6425566406251 742.8905859375003 102.776501953125 743.3793554687503 103.969099609375C743.8681250000003 105.1421464843751 744.2591406250002 106.3738457031251 744.5133007812502 107.6250957031251C744.7674609375002 108.876345703125 744.8847656250002 110.1666972656251 744.8847656250002 111.437498046875S744.7674609375002 113.998650390625 744.5133007812502 115.2499003906251C744.259140625 116.5031054687499 743.8681250000001 117.7348046875001 743.3793554687501 118.905896484375zM435.68916015625 892.588962890625C435.200390625 893.762009765625 434.59431640625 894.895955078125 433.89048828125 895.971248046875C433.18666015625 897.026990234375 432.36552734375 898.043630859375 431.46619140625 898.942966796875C430.56685546875 899.842302734375 429.569765625 900.663435546875 428.49447265625 901.367263671875C427.43873046875 902.071091796875 426.30478515625 902.677166015625 425.1121875 903.165935546875C423.939140625 903.654705078125 422.7074414062501 904.026169921875 421.45619140625 904.280330078125C418.934140625 904.788650390625 416.3534375 904.788650390625 413.83138671875 904.280330078125C412.58013671875 904.026169921875 411.3484375 903.654705078125 410.15583984375 903.165935546875C408.98279296875 902.677166015625 407.84884765625 902.071091796875 406.79310546875 901.367263671875C405.7178125 900.663435546875 404.72072265625 899.842302734375 403.82138671875 898.942966796875C402.92205078125 898.043630859375 402.10091796875 897.026990234375 401.3775390625 895.971248046875C400.6737109375 894.895955078125 400.0871875 893.762009765625 399.59841796875 892.588962890625C399.1096484375 891.415916015625 398.7186328125 890.184216796875 398.4840234375 888.932966796875C398.22986328125 887.662166015625 398.0930078125 886.391365234375 398.0930078125 885.101013671875C398.0930078125 883.830212890625 398.22986328125 882.559412109375 398.4840234375 881.288611328125C398.7186328125 880.037361328125 399.1096484375 878.805662109375 399.59841796875 877.632615234375C400.0871875 876.459568359375 400.6737109375 875.325623046875 401.3775390625 874.250330078125C402.10091796875 873.194587890625 402.92205078125 872.177947265625 403.82138671875 871.278611328125C404.72072265625 870.379275390625 405.7178125 869.558142578125 406.79310546875 868.854314453125C407.84884765625 868.150486328125 408.98279296875 867.544412109375 410.15583984375 867.055642578125C411.3484375 866.566873046875 412.58013671875 866.195408203125 413.83138671875 865.941248046875C415.08263671875 865.687087890625 416.37298828125 865.5502324218751 417.6437890625 865.5502324218751C418.91458984375 865.5502324218751 420.20494140625 865.687087890625 421.45619140625 865.941248046875C422.70744140625 866.195408203125 423.939140625 866.566873046875 425.1121875 867.055642578125C426.30478515625 867.544412109375 427.43873046875 868.150486328125 428.4944726562499 868.854314453125C429.569765625 869.558142578125 430.5668554687499 870.379275390625 431.46619140625 871.278611328125C432.36552734375 872.177947265625 433.18666015625 873.194587890625 433.89048828125 874.250330078125C434.59431640625 875.325623046875 435.200390625 876.459568359375 435.68916015625 877.632615234375C436.1779296875 878.805662109375 436.5689453124999 880.037361328125 436.8035546874999 881.288611328125C437.0577148437499 882.559412109375 437.1945703124999 883.830212890625 437.1945703124999 885.101013671875C437.1945703124999 886.391365234375 437.0577148437499 887.662166015625 436.8035546874999 888.932966796875C436.5689453125001 890.184216796875 436.1779296875 891.415916015625 435.68916015625 892.588962890625zM891.7658749999999 904.57945703125C880.0432265625 954.138732421875 835.459625 991.1385859375 782.3675234374999 991.1385859375H168.951986328125C75.792513671875 991.140541015625 0 915.34802734375 0 822.1885546875001V208.7730175781251C0 147.850828125 48.714681640625 98.1253710937501 109.234125 96.418587890625C120.9567734375 46.8593125 165.540375 9.859458984375 218.6324765625 9.859458984375H888.56345703125C950.560939453125 9.859458984375 1001 60.29851953125 1001 122.296001953125V269.8222871093749V792.2269824218749C1001 853.147216796875 952.285318359375 902.872673828125 891.7658749999999 904.57945703125zM961.8984375 122.292091796875C961.8984375 81.8552109375 929.000337890625 48.9571113281249 888.56345703125 48.9571113281249H218.6324765625C187.33167578125 48.9571113281249 160.56274609375 68.67407421875 150.058111328125 96.33451953125C146.99059375 104.4089921875 145.29749609375 113.1540566406251 145.29749609375 122.292091796875V135.43608203125V226.012896484375L369.593833984375 606.322513671875C376.422921875 617.900486328125 388.6011035156251 624.661146484375 401.9621074218751 624.446087890625C415.4032695312501 624.2153886718751 427.2647285156251 617.032431640625 433.693025390625 605.22571484375L530.2660644531251 427.8962187500001L670.64262890625 170.1328535156251C674.189140625 163.6185332031252 680.9009238281251 159.9293007812502 687.829720703125 159.9293007812502C690.989126953125 159.9293007812502 694.1935 160.6976464843751 697.163263671875 162.3144960937502C706.6453925781251 167.4798125000002 710.1469375 179.3530019531252 704.983576171875 188.8351308593752L659.4302558593749 272.4831484375002C679.430705078125 271.5603515625002 699.102701171875 278.0375253906252 714.7687421875 291.0329296875001L802.690560546875 363.9690742187501C816.790583984375 375.6663066406251 837.6102109375 375.1521210937501 851.115890625 362.7706113281252L855.7064140625 358.5632832031252L894.8079765625 322.7208359375002L961.8984375 261.219943359375V122.292091796875zM961.8984375 314.2651230468751L894.806021484375 375.767970703125L855.704458984375 405.54185546875C830.2278359375 416.19703125 799.93585546875 412.490203125 777.7242128906249 394.065546875L689.8023945312499 321.1294023437501C680.1325781249999 313.1057617187501 667.5066835937499 309.8642421875001 655.1662304687499 312.2357519531251C642.8257773437499 314.6053066406251 632.301591796875 322.2965839843752 626.2916816406249 333.3310449218751L564.6050566406249 446.6004511718751L530.1604902343748 509.8491835937501V509.8511386718751L468.0339726562499 623.9299472656251C454.7824531249999 648.2608945312501 430.3322460937499 663.0706113281251 402.6307441406249 663.543740234375C374.9370624999999 663.9777675781252 349.9883105468749 650.0517460937501 335.9137031249999 626.1880625000001L145.295541015625 302.984322265625V792.2269824218749C145.295541015625 832.66386328125 178.193640625 865.561962890625 218.630521484375 865.561962890625H339.438708984375C350.23660546875 865.561962890625 358.989490234375 874.31484765625 358.989490234375 885.112744140625S350.23660546875 904.663525390625 339.438708984375 904.663525390625H218.630521484375C156.6330390625 904.663525390625 106.193978515625 854.22446484375 106.193978515625 792.2269824218749V231.350259765625V135.723478515625C68.6701640625 138.904390625 39.1015625 170.43980078125 39.1015625 208.7730175781251V822.1885546875001C39.1015625 893.789380859375 97.353115234375 952.038978515625 168.951986328125 952.038978515625H782.3675234375C813.6683242187501 952.038978515625 840.43725390625 932.322015625 850.9418886718751 904.6615703125H495.844958984375C485.0470625 904.6615703125 476.294177734375 895.908685546875 476.294177734375 885.1107890625C476.294177734375 874.312892578125 485.0470625 865.5600078125 495.844958984375 865.5600078125H855.7025039062501L894.8040664062501 865.27456640625C932.3298359375 862.095609375 961.8984375 830.56019921875 961.8984375 792.2269824218749V314.2651230468751z" />
    <glyph glyph-name="headphones"
      unicode="&#xE003;"
      horiz-adv-x="1001" d="M842.9639705882354 620.3676470588235V658.8514705882353C842.9639705882354 750.9602941176471 810.3683823529412 836.55 751.2757352941177 900.0588235294118C690.7110294117647 965.25 607.4345588235295 1001 516.5875 1001H484.8330882352942C393.9860294117648 1001 310.7095588235295 965.25 250.1448529411765 900.0588235294118C191.052205882353 836.55 158.4566176470589 750.9602941176471 158.4566176470589 658.8514705882353V620.3676470588235C86.7463235294118 615.5308823529411 29.7566176470589 555.8073529411765 29.7566176470589 482.835294117647V422.6911764705882C29.7566176470589 346.775 91.5830882352942 284.9485294117647 167.4992647058824 284.9485294117647H245.0977941176471C258.977205882353 284.9485294117647 270.3330882352942 296.3044117647059 270.3330882352942 310.1838235294117V595.5529411764705C270.3330882352942 609.4323529411764 258.977205882353 620.7882352941176 245.0977941176471 620.7882352941176H208.927205882353V658.8514705882353C208.927205882353 825.1941176470588 327.5330882352942 950.5294117647059 484.6227941176471 950.5294117647059H516.3772058823529C673.677205882353 950.5294117647059 792.072794117647 825.1941176470588 792.072794117647 658.8514705882353V620.7882352941176H755.902205882353C742.022794117647 620.7882352941176 730.6669117647059 609.4323529411764 730.6669117647059 595.5529411764705V310.3941176470588C730.6669117647059 296.514705882353 742.022794117647 285.1588235294118 755.902205882353 285.1588235294118H791.2316176470589C780.9272058823531 153.5147058823529 690.2904411764706 123.0220588235294 648.2316176470589 116.0823529411765C636.6654411764706 151.6220588235294 603.2286764705883 177.2779411764707 563.9036764705882 177.2779411764707H500.8154411764706C452.0272058823529 177.2779411764707 412.2816176470588 137.5323529411767 412.2816176470588 88.7441176470588S452.0272058823529 1e-13 500.8154411764706 1e-13H564.1139705882354C604.9110294117647 1e-13 639.1889705882353 27.7588235294119 649.4933823529412 65.1911764705883C670.102205882353 68.1352941176471 702.6977941176472 75.4955882352941 735.0830882352942 94.4220588235295C780.7169117647059 121.1294117647059 834.7625 175.5955882352943 841.9125 285.369117647059C914.0433823529414 289.7852941176472 971.2433823529412 349.719117647059 971.2433823529412 422.9014705882353V483.0455882352942C971.4536764705882 555.8073529411765 914.6742647058824 615.7411764705882 842.9639705882354 620.3676470588235zM220.2830882352941 335.6294117647059H167.9198529411765C119.7625 335.6294117647059 80.6477941176471 374.744117647059 80.6477941176471 422.9014705882353V483.0455882352942C80.6477941176471 531.2029411764706 119.7625 570.3176470588235 167.9198529411765 570.3176470588235H220.2830882352941V335.6294117647059zM564.1139705882354 50.470588235294H500.8154411764706C479.7860294117647 50.470588235294 462.752205882353 67.5044117647059 462.752205882353 88.5338235294117S479.7860294117647 126.5970588235294 500.8154411764706 126.5970588235294H564.1139705882354C585.1433823529412 126.5970588235294 602.1772058823531 109.5632352941177 602.1772058823531 88.5338235294117S585.1433823529412 50.470588235294 564.1139705882354 50.470588235294zM920.983088235294 422.9014705882353C920.983088235294 374.744117647059 881.8683823529411 335.6294117647059 833.7110294117647 335.6294117647059H781.3477941176471V570.3176470588235H833.7110294117647C881.8683823529411 570.3176470588235 920.983088235294 531.2029411764706 920.983088235294 483.0455882352941V422.9014705882353z" />
    <glyph glyph-name="story"
      unicode="&#xE004;"
      horiz-adv-x="1001" d="M905.787284918239 171.8856497723191L806.4512829538784 271.1628315703481V984.2272174171524C806.4512829538784 993.4899216039976 798.9342745031447 1001.0000000000002 789.6630229958071 1001.0000000000002H286.0152242536687C285.6955254192872 1001.0000000000002 285.3922224192872 1000.8362032950894 285.0725235849056 1000.811633684523C283.531413784067 1000.7379252721432 282.0066977190775 1000.426710484514 280.5557597610063 999.910752436494C280.0639162075471 999.7633343537753 279.572072654088 999.5913483377687 279.0966249350104 999.38660298078C277.2276194318658 998.583998078419 275.5225617798742 997.4456125517386 274.0634248553459 996.0369587929094L72.6043053584905 794.7635677987374C71.1943538385744 793.3385375143139 70.0549157484276 791.6760004353217 69.2433754591194 789.8496666514188C69.0056495010482 789.3255171957048 68.8744912201257 788.8095591476847 68.6859527651991 788.2690289731808C68.2023060796645 786.8767580297394 67.9153968155136 785.4271577154299 67.8334239392033 783.9611766823303C67.8334239392033 783.5926346204309 67.6120938155136 783.2732305217057 67.6120938155136 782.9046863632085V145.5880882747695C67.6120938155136 136.3253840879244 75.1291022662473 128.8153056919217 84.4003537735849 128.8153056919217H663.964204467505L763.3166022662472 29.6036425758571C782.1296187106916 10.5950333985311 807.7956553333332 -0.0681310428514 834.5519446415093 -0.0026123608873C875.3339731404611 -0.0353717018694 912.1074751048216 24.5013746937418 927.7071136666664 62.1500467932987C943.2985532620544 99.7905295817595 934.6421067211738 143.1147569823201 905.7708911823898 171.8856497723191zM763.4723532494759 76.8180422421942L502.1640712138365 337.8035225356828L597.2702186184487 432.8383686282276L858.4965277777778 171.7546124083905zM487.9579904360587 371.062442943635L465.1938297295598 469.7417672928896L563.980607966457 447.0149739623913zM269.2269642955975 943.7366719632464V799.7266090058279H125.0840135618449zM101.3443647148847 162.3608708576169V766.1810438401326H286.0152242536688C295.2864757610063 766.1810438401326 302.8034842117401 773.6911222361351 302.8034842117401 782.9538264229802V967.4544348343044H772.8747630377358V304.7247774548331L609.1564388763102 468.4150129348145L608.967898322851 468.5296716765508C607.582539505241 469.8482346269319 605.9840474318657 470.9211035682459 604.238003341719 471.6991384407208C603.762553524109 471.9038837977097 603.3116985073375 472.0513018804282 602.844445557652 472.223287896435C602.254233293501 472.485362624292 601.6558241614256 472.7146780111667 601.0410191949685 472.9112340570596L446.5939465408805 508.4633083337605C440.9459435932914 509.7736819730454 435.0274251174004 508.0783855530711 430.9287288385744 503.9916572414016C426.8300325597484 499.8967417152339 425.1413707421383 493.9754903085654 426.4447566834382 488.3408836596401L462.0378341194968 334.0280069150445C462.2345715408804 333.413770844078 462.4640985324947 332.8077219876098 462.7264150943396 332.2180538499316C462.8985598134171 331.767612387278 463.0297180943396 331.3171730212221 463.2510482180293 330.8585422474723C464.0216041677148 329.0895378344377 465.1118568532494 327.4679494075237 466.4562292327043 326.0838677751783L466.5382021090146 325.9446411001537L630.3712908155136 162.360870857617zM881.9984527651991 53.2558867649507C869.4400473668762 40.668108420121 852.3812739790355 33.5920907679822 834.5929310796646 33.5920907679822S799.745814792453 40.668108420121 787.195608360587 53.2558867649507L795.0978926876311 61.1672665638348L882.1460047819708 148.1187468414889C894.7453987169813 135.5555406231431 901.8197469203355 118.4879239714565 901.7869573501048 100.6996018181628C901.7623667463314 82.9112796648693 894.6388310398323 65.8682309464708 881.9984527651992 53.3377840691071zM881.9984527651991 53.2558867649507M218.8621844213837 665.5443483430467H655.3569433312368C664.6281948385745 665.5443483430467 672.1452032893081 673.0544267390494 672.1452032893081 682.3171309258944S664.6281948385745 699.0899135087421 655.3569433312368 699.0899135087421H218.8621844213836C209.5909329140461 699.0899135087421 202.0739244633123 691.5798351127396 202.0739244633123 682.3171309258944S209.5909329140461 665.5443483430467 218.8621844213836 665.5443483430467zM218.8621844213837 665.5443483430467M218.8621844213837 564.9076528459608H655.3569433312368C664.6281948385745 564.9076528459608 672.1452032893081 572.4177312419633 672.1452032893081 581.6804354288086S664.6281948385745 598.4532180116562 655.3569433312368 598.4532180116562H218.8621844213836C209.5909329140461 598.4532180116562 202.0739244633123 590.9431396156535 202.0739244633123 581.6804354288086S209.5909329140461 564.9076528459608 218.8621844213836 564.9076528459608zM218.8621844213837 564.9076528459608M336.3800041278826 497.8165225145702H218.8621844213837C209.5909329140461 497.8165225145702 202.0739244633124 490.3064441185676 202.0739244633124 481.0437399317225S209.5909329140461 464.2709573488748 218.8621844213837 464.2709573488748H336.3800041278826C345.6512556352202 464.2709573488748 353.1682640859539 471.7810357448774 353.1682640859539 481.0437399317225S345.6512556352202 497.8165225145702 336.3800041278826 497.8165225145702zM336.3800041278826 497.8165225145702" />
    <glyph glyph-name="television"
      unicode="&#xE005;"
      horiz-adv-x="1001" d="M937.9382239684224 837.726788037428H625.5470339944155C623.1225848165751 853.2782333019609 617.8326402703076 867.8823426660027 610.2748309925619 881.027606938104L871.0557874456086 962.7438100129574C881.3720927201007 965.9746690895628 887.1135224200458 976.9590680018669 883.8826633434404 987.272763535586C880.6491945260624 997.5890688100782 869.6700150953038 1003.3383277323412 859.3537098208118 1000.097029692645L583.4388666268644 913.6389276337916C561.2064849842138 932.9771067595154 532.2044357771736 944.726159718221 500.4934756480682 944.726159718221C468.782515518963 944.726159718221 439.7830760526954 932.9771067595154 417.5506944100448 913.6389276337916L141.6332414753248 1000.097029692645C131.31432646006 1003.3304985100232 120.3351470293016 997.5864590693054 117.1042879526962 987.272763535586C113.8708191353181 976.956458261094 119.6122488352631 965.9746690895628 129.9285541097551 962.7438100129576L390.7095105628019 881.027606938104C383.1517012850562 867.8823426660027 377.8617567387887 853.2782333019609 375.4373075609483 837.726788037428H63.0617760315776C30.5835521152979 837.726788037428 4.1599267916874 811.3031627138175 4.1599267916874 778.8275485383106V116.3161462393401C4.1599267916874 83.8379223230604 30.5835521152979 57.4142969994499 63.0617760315776 57.4142969994499H72.5012084064417V19.573055795267C72.5012084064417 8.7635095147343 81.2647179211759 0 92.0742642017087 0S111.6473199969757 8.7635095147343 111.6473199969757 19.573055795267V57.4142969994499H889.3500702622516V19.573055795267C889.3500702622516 8.7635095147343 898.1109700362132 0 908.9231260575186 0S928.4961818527856 8.7635095147343 928.4961818527856 19.573055795267V57.4142969994499H937.9356142276496C970.4112284031568 57.4142969994499 996.8348537267672 83.8379223230604 996.8348537267672 116.3161462393401V778.8275485383106C996.8400732083126 811.3031627138175 970.416447884702 837.726788037428 937.9382239684224 837.726788037428zM500.4934756480682 905.580048127687C541.9700857486254 905.580048127687 576.7683692118375 876.5388528090562 585.685853432161 837.726788037428H415.3037076047481C424.2185820842991 876.5362430682834 459.0142558067384 905.580048127687 500.4934756480682 905.580048127687zM957.6939616177787 116.3161462393401C957.6939616177787 105.4230882540809 948.8312819536816 96.5604085899839 937.940833709195 96.5604085899839H63.0617760315776C52.1687180463183 96.5604085899839 43.3060383822214 105.4230882540809 43.3060383822214 116.3161462393401V778.8275485383106C43.3060383822214 789.7206065235698 52.1687180463183 798.580676446894 63.0617760315776 798.580676446894H937.9382239684224C948.8312819536816 798.580676446894 957.6913518770058 789.7179967827971 957.6913518770058 778.8275485383106V116.3161462393401zM905.5069753860512 730.4038085008199C904.001154960202 739.1960251640539 896.743465871317 745.8586933567628 887.854688799493 746.6050792177556C630.818710355274 768.2267815195939 370.1734604224077 768.2267815195939 113.1427014597341 746.6050792177556C104.2539243879102 745.8560836159901 96.9962352990252 739.1960251640539 95.4904148731759 730.4038085008199C64.4031827887465 548.7893383876965 64.4031827887465 364.6173223173247 95.4904148731759 183.0054619449738C96.9962352990252 174.2132452817398 104.2539243879102 167.5531868298037 113.1427014597341 166.804191228038C241.6567760706846 155.9920352067327 371.0764307297627 150.5872620664661 500.4986951296136 150.5872620664661C629.9183497886918 150.5872620664661 759.3380044477699 155.9920352067327 887.854688799493 166.804191228038C896.7408561305442 167.5531868298035 904.001154960202 174.2132452817398 905.5069753860512 183.0054619449738C936.5942074704808 364.6199320580974 936.5942074704808 548.7893383876965 905.5069753860512 730.4038085008199zM869.4090410180335 204.5619207274947C624.5318448338343 184.7905246335022 376.4655454253929 184.7905246335022 131.5935687227391 204.5619207274947C104.5723127621798 371.9480841478454 104.5723127621798 541.4611862979484 131.5935687227391 708.8473497182993C376.4681551661656 728.6187458122916 624.5318448338343 728.6187458122916 869.4090410180335 708.8473497182993C896.4276872378201 541.4611862979484 896.4276872378201 371.9480841478454 869.4090410180335 204.5619207274947zM837.972103670062 560.7654387936271C827.1782158341654 560.1678081566783 818.9131668070173 550.9319355620851 819.5134071847389 540.1380477261885C823.3157994905661 471.4783777371645 822.3919512570295 401.8792010699676 816.7627404103108 333.2743356371705C815.8780382883647 322.5013257274556 823.8951619421061 313.048844648728 834.6681718518211 312.1667522675545C835.2136076733158 312.1223866744185 835.7538240132651 312.101508748237 836.288820871669 312.101508748237C846.3728592173906 312.101508748237 854.9380284333995 319.8472193616174 855.7757552214368 330.0747934498376C861.5511115514271 400.4595020896177 862.5010571926906 471.8646193715244 858.596884996728 542.3067423083039C857.9992543597791 553.0980204034279 848.8103570990945 561.3474109859396 837.972103670062 560.7654387936271zM834.2610522912795 584.3757635642646C834.8899998175007 584.3757635642646 835.5267765660401 584.407080453537 836.1661630553522 584.4671044913091C846.9261242612035 585.5083910596173 854.8075413947644 595.0730909915711 853.7636450856835 605.8356619381952C851.8246076915658 625.901958739503 849.4549630699521 646.2396685811718 846.7225644809329 666.2903069378433C845.2611096482196 677.0032928097861 835.3571434158144 684.498468308987 824.6859133962349 683.0396232170465C813.9755372650648 681.5781683843331 806.4725325435458 671.7133482635186 807.9339873762591 661.0029721323485C810.5985327051881 641.4586234855813 812.9081532890297 621.6298130945895 814.8028250900114 602.0671962624133C815.7814778797747 591.9466215458738 824.2970620211021 584.3757635642646 834.2610522912795 584.3757635642646zM933.3346412453756 150.6629445488746C918.3181928392466 160.5486425958709 898.4919921890275 145.9549721949198 903.7427906237046 128.7124149096759C906.1254839491818 120.8910218138872 913.3257587410674 115.2696401894865 921.4916376188526 114.8573011473994C930.0228802048164 114.4266939199035 937.9878090431038 119.7923209485796 940.8846213008032 127.8068348615481C943.8779939670928 136.0953715556507 940.7045491874868 145.8114364524212 933.3346412453756 150.6629445488746z" />
  </font>
</defs>
</svg>
