<svg width="64" height="55" xmlns="http://www.w3.org/2000/svg" preserveAspectRatio="xMidYMid meet">

 <metadata>Created by potrace 1.15, written by Peter Selinger 2001-2017</metadata>
 <g>
  <title>background</title>
  <rect x="-1" y="-1" width="66" height="57" id="canvas_background" fill="#000000"/>
 </g>
 <g class="currentLayer">
  <title>Layer 1</title>
  <g stroke="#000000" class="selected" transform="translate(0,55) scale(0.10000000149011612,-0.10000000149011612) " fill="#ffffff" id="svg_1">
   <path stroke="#000000" fill="#ffffff" d="m0,533c2,-21 319,-528 330,-528c12,0 310,497 310,517c0,14 -56,9 -190,-17l-130,-26l-132,31c-131,30 -188,37 -188,23zm186,-48c68,-19 131,-35 140,-35c10,0 75,16 146,36c72,19 132,33 135,31c7,-8 -271,-487 -281,-484c-4,1 -60,93 -123,202c-63,110 -126,219 -139,243c-14,23 -20,42 -14,42c6,0 67,-16 136,-35z" id="svg_2"/>
   <path stroke="#000000" fill="#ffffff" d="m95,453c103,-185 231,-400 235,-396c10,9 257,438 255,441c-2,2 -60,-13 -130,-32l-128,-36l-123,35c-68,19 -127,35 -130,35c-3,0 6,-21 21,-47z" id="svg_3"/>
  </g>
  <path d="m49.44726,10.74102" id="svg_4" fill-rule="nonzero" stroke="#000000" fill="#ffffff"/>
  <path d="m49.72151,-98.02744" id="svg_5" fill-rule="nonzero" stroke="#000000" fill="#ffffff"/>
 </g>
 <g>
  <title>Layer 2</title>
  <rect fill="none" y="0" x="0" height="100%" width="100%" id="backgroundrect"/>
 </g>
</svg>