<!-- Generated by IcoMoon.io -->
<svg version="1.1" xmlns="http://www.w3.org/2000/svg" width="640" height="640" viewBox="0 0 640 640">
<title></title>
<g id="icomoon-ignore">
</g>
<path fill="#000" d="M359.328 359.328c-50.656 50.624-109.344 99.072-132.544 75.872-33.184-33.184-53.664-62.112-126.88-3.264-73.184 58.816-16.96 98.048 15.2 130.176 37.12 37.12 175.488 1.984 312.256-134.752 136.736-136.768 171.776-275.136 134.624-312.256-32.16-32.192-71.2-88.384-130.016-15.2-58.848 73.184-29.952 93.664 3.296 126.88 23.104 23.2-25.312 81.888-75.936 132.544z"></path>
</svg>
